1,Walmart,walmart.com
2,Exxon Mobil,exxonmobil.com
3,Chevron,chevron.com
4,Berkshire Hathaway,berkshirehathaway.com
5,Apple,apple.com
6,General Motors,gm.com
7,Phillips 66,phillips66.com
8,General Electric,ge.com
9,Ford Motor,ford.com
10,CVS Health,cvshealth.com
11,McKesson,mckesson.com
12,AT&T,att.com
13,Valero Energy,valero.com
14,UnitedHealth Group,unitedhealthgroup.com
15,Verizon,verizon.com
16,AmerisourceBergen,amerisourcebergen.com
17,Fannie Mae,fanniemae.com
18,Costco,costco.com
19,HP,hp.com
20,Kroger,thekrogerco.com
21,JP Morgan Chase,jpmorganchase.com
22,Express Scripts Holding,express-scripts.com
23,Bank of America Corp.,bankofamerica.com
24,IBM,ibm.com
25,Marathon Petroleum,marathonpetroleum.com
26,Cardinal Health,cardinal.com
27,Boeing,boeing.com
28,Citigroup,citigroup.com
29,Amazon.com,amazon.com
30,Wells Fargo,wellsfargo.com
31,Microsoft,microsoft.com
32,Procter & Gamble,pg.com
33,Home Depot,homedepot.com
34,Archer Daniels Midland,adm.com
35,Walgreens,walgreensbootsalliance.com
36,Target,target.com
37,Johnson & Johnson,jnj.com
38,Anthem,antheminc.com
39,MetLife,metlife.com
40,Alphabet,google.com
41,State Farm Insurance Cos.,statefarm.com
42,Freddie Mac,freddiemac.com
43,Comcast,comcastcorporation.com
44,PepsiCo,pepsico.com
45,United Technologies,utc.com
46,AIG,aig.com
47,UPS,ups.com
48,Dow Chemical,dow.com
49,Aetna,aetna.com
50,Lowe's,lowes.com
51,ConocoPhillips,conocophillips.com
52,Intel,intel.com
53,Energy Transfer Equity,energytransfer.com
54,Caterpillar,caterpillar.com
55,Prudential Financial,prudential.com
56,Pfizer,pfizer.com
57,Walt Disney,disney.com
58,Humana,humana.com
59,Enterprise Products Partners,enterpriseproducts.com
60,Cisco Systems,cisco.com
61,Sysco,sysco.com
62,Ingram Micro,ingrammicro.com
63,Coca-Cola,coca-colacompany.com
64,Lockheed Martin,lockheedmartin.com
65,FedEx,fedex.com
66,Johnson Controls,johnsoncontrols.com
67,Plains GP Holdings,plainsallamerican.com
68,World Fuel Services,wfscorp.com
69,CHS,chsinc.com
70,American Airlines Group,aa.com
71,Merck,merck.com
72,Best Buy,bestbuy.com
73,Delta Air Lines,delta.com
74,Honeywell International,honeywell.com
75,HCA Holdings,hcahealthcare.com
76,Goldman Sachs Group,gs.com
77,Tesoro,tsocorp.com
78,Liberty Mutual Insurance Group,libertymutual.com
79,United Continental Holdings,unitedcontinentalholdings.com
80,New York Life Insurance,newyorklife.com
81,Oracle,oracle.com
82,Morgan Stanley,morganstanley.com
84,Safeway,safeway.com
85,Nationwide,nationwide.com
86,Deere,johndeere.com
87,DuPont,dupont.com
88,American Express,americanexpress.com
89,Allstate,allstate.com
90,Cigna,cigna.com
91,Mondelez International,mondelezinternational.com
92,TIAA-CREF,tiaa-cref.org
93,INTL FCStone,intlfcstone.com
94,Massachusetts Mutual Life Insurance,massmutual.com
95,DirecTV,directv.com
96,Halliburton,halliburton.com
97,Twenty-First Century Fox,21cf.com
98,3M,3m.com
99,Sears Holdings,searsholdings.com
100,General Dynamics,generaldynamics.com
101,Publix Super Markets,publix.com
102,Philip Morris International,pmi.com
103,TJX,tjx.com
104,Time Warner,timewarner.com
105,Macy's,macysinc.com
106,Nike,nike.com
107,Tech Data,techdata.com
108,Avnet,avnet.com
109,Northwestern Mutual,northwesternmutual.com
110,McDonald's,aboutmcdonalds.com
111,Exelon,exeloncorp.com
112,Travelers Cos.,travelers.com
113,Qualcomm,qualcomm.com
114,International Paper,internationalpaper.com
115,Occidental Petroleum,oxy.com
116,Duke Energy,duke-energy.com
117,Rite Aid,riteaid.com
118,Gilead Sciences,gilead.com
119,Baker Hughes,bakerhughes.com
120,Emerson Electric,emerson.com
121,EMC,emc.com
122,USAA,usaa.com
123,Union Pacific,up.com
124,Northrop Grumman,northropgrumman.com
125,Alcoa,alcoa.com
126,Capital One Financial,capitalone.com
127,National Oilwell Varco,nov.com
128,US Foods,usfoods.com
129,Raytheon,raytheon.com
130,Time Warner Cable,twc.com
131,Arrow Electronics,arrow.com
132,Aflac,aflac.com
133,Staples,staples.com
134,Abbott Laboratories,abbott.com
135,Community Health Systems,chs.net
136,Fluor,fluor.com
137,Freeport-McMoRan,fcx.com
138,U.S. Bancorp,usbank.com
139,Nucor,nucor.com
140,Kimberly-Clark,kimberly-clark.com
141,Hess,hess.com
142,Chesapeake Energy,chk.com
143,Xerox,xerox.com
144,ManpowerGroup,manpowergroup.com
145,Amgen,amgen.com
146,AbbVie,abbvie.com
147,Danaher,danaher.com
148,Whirlpool,whirlpoolcorp.com
149,PBF Energy,pbfenergy.com
150,HollyFrontier,hollyfrontier.com
151,Eli Lilly,lilly.com
152,Devon Energy,devonenergy.com
153,Progressive,progressive.com
154,Cummins,cummins.com
155,Icahn Enterprises,ielp.com
156,AutoNation,autonation.com
157,Kohl's,kohlscorporation.com
158,Paccar,paccar.com
159,Dollar General,dollargeneral.com
160,Hartford Financial Services Group,thehartford.com
161,Southwest Airlines,southwest.com
162,Anadarko Petroleum,anadarko.com
163,Southern,southerncompany.com
164,Supervalu,supervalu.com
165,Kraft Foods Group,kraftfoodsgroup.com
166,Goodyear Tire & Rubber,goodyear.com
167,EOG Resources,eogresources.com
168,CenturyLink,centurylink.com
169,Altria Group,altria.com
170,Tenet Healthcare,tenethealth.com
171,General Mills,generalmills.com
172,eBay,ebay.com
173,ConAgra Foods,conagrafoods.com
174,Lear,lear.com
175,TRW Automotive Holdings,trw.com
176,United States Steel,ussteel.com
177,Penske Automotive Group,penskeautomotive.com
178,AES,aes.com
179,Colgate-Palmolive,colgatepalmolive.com
180,Global Partners,globalp.com
181,Thermo Fisher Scientific,thermofisher.com
182,PG&E Corp.,pge.com
183,NextEra Energy,nexteraenergy.com
184,American Electric Power,aep.com
185,Baxter International,baxter.com
186,Centene,centene.com
187,Starbucks,starbucks.com
188,Gap,gapinc.com
189,Bank of New York Mellon Corp.,bnymellon.com
190,Micron Technology,micron.com
191,Jabil Circuit,jabil.com
192,PNC Financial Services Group,pnc.com
193,Kinder Morgan,kindermorgan.com
194,Office Depot,officedepot.com
195,Bristol-Myers Squibb,bms.com
196,NRG Energy,nrgenergy.com
197,Monsanto,monsanto.com
198,PPG Industries,ppg.com
199,Genuine Parts,genpt.com
200,Omnicom Group,omnicomgroup.com
201,Illinois Tool Works,itw.com
202,Murphy USA,corporate.murphyusa.com
203,Land O'Lakes,landolakesinc.com
204,Western Refining,wnr.com
205,Western Digital,westerndigital.com
206,FirstEnergy,firstenergycorp.com
207,Aramark,aramark.com
208,DISH Network,dish.com
209,Las Vegas Sands,sands.com
210,Kellogg,kelloggcompany.com
211,Loews,loews.com
212,CBS,cbscorporation.com
213,Ecolab,ecolab.com
214,Whole Foods Market,wholefoodsmarket.com
215,Chubb,chubb.com
216,Health Net,healthnet.com
217,Waste Management,wm.com
218,Apache,apachecorp.com
219,Textron,textron.com
220,Synnex,synnex.com
221,Marriott International,marriott.com
222,Viacom,viacom.com
223,Lincoln National,lfg.com
224,Nordstrom,nordstrom.com
225,C.H. Robinson Worldwide,chrobinson.com
226,Edison International,edisoninvestor.com
227,Marathon Oil,marathonoil.com
228,Yum Brands,yum.com
229,Computer Sciences,csc.com
230,Parker-Hannifin,parker.com
231,DaVita HealthCare Partners,davita.com
232,CarMax,carmax.com
233,Texas Instruments,ti.com
234,WellCare Health Plans,wellcare.com
235,Marsh & McLennan,mmc.com
236,Consolidated Edison,conedison.com
237,Oneok,oneok.com
238,Visa,visa.com
239,Jacobs Engineering Group,jacobs.com
240,CSX,csx.com
241,Entergy,entergy.com
242,Facebook,facebook.com
243,Dominion Resources,dom.com
244,Leucadia National,leucadia.com
245,"Toys ""R"" Us",toysrusinc.com
246,DTE Energy,dteenergy.com
247,Ameriprise Financial,ameriprise.com
248,VF,vfc.com
249,Praxair,praxair.com
250,J.C. Penney,jcpenney.com
251,Automatic Data Processing,adp.com
252,L-3 Communications,l-3com.com
253,CDW,cdw.com
254,Guardian Life Ins. Co. of America,guardianlife.com
255,Xcel Energy,xcelenergy.com
256,Norfolk Southern,nscorp.com
257,PPL,pplweb.com
258,R.R. Donnelley & Sons,rrdonnelley.com
259,Huntsman,huntsman.com
260,Bed Bath & Beyond,bedbathandbeyond.com
261,Stanley Black & Decker,stanleyblackanddecker.com
262,L Brands,lb.com
263,Liberty Interactive,libertyinteractive.com
264,Farmers Insurance Exchange,farmers.com
265,First Data,firstdata.com
266,Sherwin-Williams,sherwin.com
267,BlackRock,blackrock.com
268,Voya Financial,voya.com
269,Ross Stores,rossstores.com
270,Sempra Energy,sempra.com
271,Estee Lauder,elcompanies.com
272,H.J. Heinz,heinz.com
273,Reinsurance Group of America,rgare.com
274,Public Service Enterprise Group,pseg.com
275,Cameron International,c-a-m.com
276,Navistar International,navistar.com
277,CST Brands,cstbrands.com
278,State Street Corp.,statestreet.com
279,Unum Group,unum.com
280,Hilton Worldwide Holdings,hiltonworldwide.com
281,Family Dollar Stores,familydollar.com
282,Principal Financial,principal.com
283,Reliance Steel & Aluminum,rsac.com
284,Air Products & Chemicals,airproducts.com
285,Assurant,assurant.com
286,Peter Kiewit Sons',kiewit.com
287,Henry Schein,henryschein.com
288,Cognizant Technology Solutions,cognizant.com
289,MGM Resorts International,mgmresorts.com
290,W.W. Grainger,grainger.com
291,Group 1 Automotive,group1auto.com
292,BB&T Corp.,bbt.com
293,WestRock,westrock.com
294,Advance Auto Parts,advanceautoparts.com
295,Ally Financial,ally.com
296,AGCO,agcocorp.com
297,Corning,corning.com
298,Biogen,biogen.com
299,NGL Energy Partners,nglenergypartners.com
300,Stryker,stryker.com
301,Molina Healthcare,molinahealthcare.com
302,Precision Castparts,precast.com
303,Discover Financial Services,discoverfinancial.com
304,Genworth Financial,genworth.com
305,Eastman Chemical,eastman.com
306,Dean Foods,deanfoods.com
307,AutoZone,autozone.com
308,MasterCard,mastercard.com
309,Owens & Minor,owens-minor.com
310,Hormel Foods,hormelfoods.com
311,GameStop,gamestopcorp.com
312,Autoliv,autoliv.com
313,CenterPoint Energy,centerpointenergy.com
314,Fidelity National Financial,fnf.com
315,Sonic Automotive,sonicautomotive.com
316,HD Supply Holdings,hdsupply.com
317,Charter Communications,charter.com
318,Crown Holdings,crowncork.com
319,Applied Materials,appliedmaterials.com
320,Mosaic,mosaicco.com
321,CBRE Group,cbre.com
322,Avon Products,avoncompany.com
323,Republic Services,republicservices.com
324,Universal Health Services,uhsinc.com
325,Darden Restaurants,darden.com
326,Steel Dynamics,steeldynamics.com
327,SunTrust Banks,suntrust.com
328,Caesars Entertainment,caesars.com
330,Dollar Tree,dollartree.com
331,News Corp.,newscorp.com
332,Ball,ball.com
333,Thrivent Financial for Lutherans,thrivent.com
334,Masco,masco.com
335,Franklin Resources,franklinresources.com
336,Avis Budget Group,avisbudgetgroup.com
338,Becton Dickinson,bd.com
339,Priceline Group,pricelinegroup.com
340,Broadcom,broadcom.com
341,Tenneco,tenneco.com
342,Campbell Soup,campbellsoupcompany.com
343,AECOM,aecom.com
344,Visteon,visteon.com
345,Delek US Holdings,delekus.com
346,Dover,dovercorporation.com
347,BorgWarner,borgwarner.com
348,Jarden,jarden.com
349,UGI,ugicorp.com
350,Murphy Oil,murphyoilcorp.com
351,PVH,pvh.com
352,Core-Mark Holding,core-mark.com
353,Calpine,calpine.com
354,D.R. Horton,drhorton.com
355,Weyerhaeuser,weyerhaeuser.com
356,KKR,kkr.com
357,FMC Technologies,fmctechnologies.com
358,American Family Insurance Group,amfam.com
359,SpartanNash,spartannash.com
360,WESCO International,wesco.com
361,Quanta Services,quantaservices.com
362,Mohawk Industries,mohawkind.com
363,Motorola Solutions,motorolasolutions.com
364,Lennar,lennar.com
365,TravelCenters of America,ta-petrol.com
366,Sealed Air,sealedair.com
367,Eversource Energy,eversource.com
368,Coca-Cola Enterprises,cokecce.com
369,Celgene,celgene.com
370,Williams,williams.com
371,Ashland,ashland.com
372,Interpublic Group,interpublic.com
373,Blackstone Group,blackstone.com
374,Ralph Lauren,ralphlauren.com
375,Quest Diagnostics,questdiagnostics.com
376,Hershey,thehersheycompany.com
377,Terex,terex.com
378,Boston Scientific,bostonscientific.com
379,Newmont Mining,newmont.com
380,Allergan,allergan.com
381,O'Reilly Automotive,oreillyauto.com
382,Casey's General Stores,caseys.com
383,CMS Energy,cmsenergy.com
384,Foot Locker,footlocker-inc.com
385,W.R. Berkley,wrberkley.com
386,PetSmart,petsmart.com
387,Pacific Life,pacificlife.com
388,Commercial Metals,cmc.com
389,Agilent Technologies,agilent.com
390,Huntington Ingalls Industries,huntingtoningalls.com
391,Mutual of Omaha Insurance,mutualofomaha.com
392,Live Nation Entertainment,livenation.com
393,Dick's Sporting Goods,dickssportinggoods.com
394,Oshkosh,oshkoshcorporation.com
395,Celanese,celanese.com
396,Spirit AeroSystems Holdings,spiritaero.com
397,United Natural Foods,unfi.com
398,Peabody Energy,peabodyenergy.com
399,Owens-Illinois,o-i.com
400,Dillard's,dillards.com
401,Level 3 Communications,level3.com
402,Pantry,couche-tard.com
403,LKQ,lkqcorp.com
405,Symantec,symantec.com
406,Buckeye Partners,buckeye.com
407,Ryder System,ryder.com
408,SanDisk,sandisk.com
409,Rockwell Automation,rockwellautomation.com
410,Dana Holding,dana.com
411,Lansing Trade Group,lansingtradegroup.com
412,NCR,ncr.com
413,Expeditors International of Washington,expeditors.com
414,Omnicare,omnicare.com
415,AK Steel Holding,aksteel.com
416,Fifth Third Bancorp,53.com
417,Seaboard,seaboardcorp.com
418,NiSource,nisource.com
419,Cablevision Systems,cablevision.com
420,Anixter International,anixter.com
421,EMCOR Group,emcorgroup.com
422,Fidelity National Information Services,fisglobal.com
423,Barnes & Noble,barnesandnobleinc.com
424,KBR,kbr.com
425,Auto-Owners Insurance,auto-owners.com
426,Jones Financial,edwardjones.com
427,Avery Dennison,averydennison.com
428,NetApp,netapp.com
429,iHeartMedia,iheartmedia.com
430,Discovery Communications,discoverycommunications.com
431,Harley-Davidson,harley-davidson.com
432,Sanmina,sanmina.com
433,Trinity Industries,trin.net
434,J.B. Hunt Transport Services,jbhunt.com
435,Charles Schwab,aboutschwab.com
436,Erie Insurance Group,erieinsurance.com
437,Dr Pepper Snapple Group,drpeppersnapplegroup.com
438,Ameren,ameren.com
439,Mattel,mattel.com
441,TEGNA,tegna.com
442,Starwood Hotels & Resorts,starwoodhotels.com
443,General Cable,generalcable.com
444,A-Mark Precious Metals,amark.com
445,Graybar Electric,graybar.com
446,Energy Future Holdings,energyfutureholdings.com
447,HRG Group,hrggroup.com
448,MRC Global,mrcglobal.com
449,Spectra Energy,spectraenergy.com
450,Asbury Automotive Group,asburyauto.com
451,Packaging Corp. of America,packagingcorp.com
452,Windstream Holdings,windstream.com
453,PulteGroup,pultegroupinc.com
454,JetBlue Airways,jetblue.com
455,Newell Rubbermaid,newellrubbermaid.com
456,Con-way,con-way.com
457,Calumet Specialty Products Partners,calumetspecialty.com
458,Expedia,expediainc.com
459,American Financial Group,afginc.com
460,Tractor Supply,tractorsupply.com
461,United Rentals,unitedrentals.com
462,Ingredion,ingredion.com
463,Navient,navient.com
464,MeadWestvaco,mwv.com
465,AGL Resources,aglresources.com
466,St. Jude Medical,sjm.com
467,J.M. Smucker,jmsmucker.com
468,Western Union,westernunion.com
469,Clorox,thecloroxcompany.com
470,Domtar,domtar.com
471,Kelly Services,kellyservices.com
472,Old Republic International,oldrepublic.com
473,Advanced Micro Devices,amd.com
474,Netflix,netflix.com
475,Booz Allen Hamilton Holding,boozallen.com
476,Quintiles Transnational Holdings,quintiles.com
477,Wynn Resorts,wynnresorts.com
478,Jones Lang LaSalle,jll.com
479,Regions Financial,regions.com
480,CH2M Hill,ch2m.com
481,Western & Southern Financial Group,westernsouthern.com
482,Lithia Motors,lithia.com
483,salesforce.com,salesforce.com
484,Alaska Air Group,alaskaair.com
485,Host Hotels & Resorts,hosthotels.com
486,Harman International Industries,harman.com
487,Amphenol,amphenol.com
488,Realogy Holdings,realogy.com
489,Essendant,essendant.com
490,Hanesbrands,hanes.com
491,Kindred Healthcare,kindredhealthcare.com
492,ARRIS Group,arris.com
493,Insight Enterprises,insight.com
494,Alliance Data Systems,alliancedata.com
495,LifePoint Health,lifepointhealth.net
496,Pioneer Natural Resources,pxd.com
497,Wyndham Worldwide,wyndhamworldwide.com
498,Owens Corning,owenscorning.com
499,Alleghany,alleghany.com
500,McGraw Hill Financial,mhfi.com
501,Big Lots,biglots.com
502,Northern Tier Energy,ntenergy.com
503,Hexion,hexion.com
504,Markel,markelcorp.com
505,Noble Energy,nobleenergyinc.com
506,Leidos Holdings,leidos.com
507,Rockwell Collins,rockwellcollins.com
508,Airgas,airgas.com
509,Sprague Resources,spragueenergy.com
510,YRC Worldwide,yrcw.com
511,Hanover Insurance Group,hanover.com
512,Fiserv,fiserv.com
513,Lorillard,reynoldsamerican.com
514,American Tire Distributors Holdings,atd-us.com
515,ABM Industries,abm.com
516,Sonoco Products,sonoco.com
517,Harris,harris.com
518,Telephone & Data Systems,tdsinc.com
519,WEC Energy Group,wecenergygroup.com
520,Linn Energy,linnenergy.com
521,Raymond James Financial,raymondjames.com
522,Berry Plastics Group,berryplastics.com
523,Regency Energy Partners,scana.com
523,Regency Energy Partners,regencygasservices.com
525,Cincinnati Financial,cinfin.com
526,Atmos Energy,atmosenergy.com
527,Pepco Holdings,pepcoholdings.com
528,Flowserve,flowserve.com
529,Simon Property Group,simon.com
530,Constellation Brands,cbrands.com
531,Quad/Graphics,qg.com
532,Burlington Stores,burlingtonstores.com
533,Neiman Marcus Group,neimanmarcusgroup.com
534,Bemis,bemis.com
535,Coach,coach.com
536,Continental Resources,clr.com
537,Ascena Retail Group,ascenaretail.com
538,Zoetis,zoetis.com
539,Orbital ATK,orbitalatk.com
540,Frontier Communications,frontier.com
541,Levi Strauss,levistrauss.com
542,SPX,spx.com
543,CF Industries Holdings,cfindustries.com
544,Michaels Cos.,michaels.com
545,M&T Bank Corp.,mtb.com
546,Rush Enterprises,rushenterprises.com
547,Aleris,aleris.com
548,Nexeo Solutions Holdings,nexeosolutions.com
549,Keurig Green Mountain,keurig.com
550,Superior Energy Services,superiorenergy.com
551,Williams-Sonoma,williams-sonomainc.com
552,Robert Half International,roberthalf.com
553,Nvidia,nvidia.com
554,First American Financial,firstam.com
555,Zimmer Biomet Holdings,zimmerbiomet.com
556,MDU Resources Group,mdu.com
557,Juniper Networks,juniper.net
558,Arthur J. Gallagher,ajg.com
559,Colfax,colfaxcorp.com
560,Cliffs Natural Resources,cliffsnaturalresources.com
561,Yahoo,yahoo.com
562,MasTec,mastec.com
563,Lam Research,lamresearch.com
564,Axiall,axiall.com
565,Intercontinental Exchange,theice.com
566,Cintas,cintas.com
567,Coty,coty.com
568,CA,ca.com
569,Andersons,andersonsinc.com
570,Valspar,valsparglobal.com
571,Northern Trust,northerntrust.com
572,Intuit,intuit.com
573,Tutor Perini,tutorperini.com
574,Polaris Industries,polaris.com
575,Hospira,hospira.com
576,FM Global,fmglobal.com
577,NVR,nvrinc.com
578,Liberty Media,libertymedia.com
579,Edgewell Personal Care,edgewell.com
580,Bloomin' Brands,bloominbrands.com
581,Avaya,avaya.com
582,Westlake Chemical,westlake.com
583,Hyatt Hotels,hyatt.com
584,Mead Johnson Nutrition,meadjohnson.com
585,Activision Blizzard,activisionblizzard.com
586,Protective Life,protective.com
587,Envision Healthcare Holdings,evhc.net
588,Fortune Brands Home & Security,fbhs.com
589,RPM International,rpminc.com
590,VWR,vwr.com
591,LPL Financial Holdings,lpl.com
592,KeyCorp,key.com
593,Swift Transportation,swifttrans.com
594,Alpha Natural Resources,alphanr.com
595,Hasbro,hasbro.com
596,Resolute Forest Products,resolutefp.com
597,Tiffany,tiffany.com
598,McCormick,mccormickcorporation.com
599,Graphic Packaging Holding,graphicpkg.com
600,Greif,greif.com
601,Allegheny Technologies,atimetals.com
602,Securian Financial Group,securian.com
603,B/E Aerospace,beaerospace.com
604,Exelis,exelisinc.com
605,Adobe Systems,adobe.com
606,Molson Coors Brewing,molsoncoors.com
607,Roundy's,roundys.com
608,CNO Financial Group,cnoinc.com
609,Adams Resources & Energy,adamsresources.com
610,Belk,belk.com
611,Chipotle Mexican Grill,chipotle.com
612,American Tower,americantower.com
613,FMC,fmc.com
614,Hillshire Brands,tysonfoods.com
615,AmTrust Financial Services,amtrustgroup.com
616,Brunswick,brunswick.com
617,Patterson,pattersoncompanies.com
618,Southwestern Energy,swn.com
619,Ametek,ametek.com
620,T. Rowe Price,troweprice.com
621,Torchmark,torchmarkcorp.com
622,Darling Ingredients,darlingii.com
623,Leggett & Platt,leggett.com
624,Watsco,watsco.com
625,Crestwood Equity Partners,crestwoodlp.com
626,Xylem,xyleminc.com
627,Silgan Holdings,silganholdings.com
628,Toll Brothers,tollbrothers.com
629,Manitowoc,manitowoc.com
630,Science Applications International,saic.com
631,Carlyle Group,carlyle.com
632,Timken,timken.com
633,Genesis Energy,genesisenergy.com
634,WPX Energy,wpxenergy.com
635,CareFusion,carefusion.com
636,Pitney Bowes,pb.com
637,Ingles Markets,ingles-markets.com
638,PolyOne,polyone.com
639,Brookdale Senior Living,brookdale.com
640,CommScope Holding,commscope.com
641,Meritor,meritor.com
642,Joy Global,joyglobal.com
643,Unified Grocers,unifiedgrocers.com
644,Triumph Group,triumphgroup.com
645,Magellan Health,magellanhealth.com
646,Sally Beauty Holdings,sallybeautyholdings.com
647,Flowers Foods,flowersfoods.com
648,Abercrombie & Fitch,abercrombie.com
649,New Jersey Resources,njresources.com
650,Fastenal,fastenal.com
651,NII Holdings,nii.com
652,Consol Energy,consolenergy.com
653,USG,usg.com
654,Brink's,brinks.com
655,Helmerich & Payne,hpinc.com
656,Lexmark International,lexmark.com
657,American Axle & Manufacturing,aam.com
658,Crown Castle International,crowncastle.com
659,Targa Energy,targaresources.com
660,Oceaneering International,oceaneering.com
661,Cabot,cabotcorp.com
662,CIT Group,cit.com
663,Cabela's,cabelas.com
664,Forest Laboratories,actavis.com
665,DCP Midstream Partners,dcppartners.com
666,Ryerson Holding,ryerson.com
667,QEP Resources,qepres.com
668,Thor Industries,thorindustries.com
669,HSN,hsni.com
670,Graham Holdings,ghco.com
671,Electronic Arts,ea.com
672,Boise Cascade,bc.com
673,Hub Group,hubgroup.com
674,CACI International,caci.com
675,Roper Technologies,ropertech.com
676,Towers Watson,towerswatson.com
677,Smart & Final Stores,smartandfinal.com
678,Big Heart Pet Brands,bigheartpet.com
679,Fossil Group,fossilgroup.com
680,Nasdaq OMX Group,nasdaqomx.com
681,Country Financial,countryfinancial.com
682,Snap-on,snapon.com
683,Pinnacle West Capital,pinnaclewest.com
684,EchoStar,echostar.com
685,Systemax,systemax.com
686,WhiteWave Foods,whitewave.com
687,CUNA Mutual Group,cunamutual.com
688,Cooper Tire & Rubber,coopertire.com
689,ADT,adt.com
690,Cerner,cerner.com
691,Clean Harbors,cleanharbors.com
692,First Solar,firstsolar.com
693,Lennox International,lennoxinternational.com
694,Enable Midstream Partners,enablemidstream.com
695,Hubbell,hubbell.com
696,Unisys,unisys.com
697,Alliant Energy,alliantenergy.com
698,Welltower,welltower.com
699,Moody's,moodys.com
700,C.R. Bard,crbard.com
701,Urban Outfitters,urbanoutfittersinc.com
702,Church & Dwight,churchdwight.com
703,American Eagle Outfitters,ae.com
704,Oaktree Capital Group,oaktreecapital.com
705,Regal Beloit,regalbeloit.com
706,Men's Wearhouse,menswearhouse.com
707,Cooper-Standard Holdings,cooperstandard.com
708,W.R. Grace,grace.com
709,Ulta Salon Cosmetics & Fragrance,ulta.com
710,Hawaiian Electric Industries,hei.com
711,SkyWest,skywest.com
712,Green Plains,gpreinc.com
713,LVB Acquisition,biomet.com
714,NBTY,nbty.com
715,Carlisle,carlisle.com
716,United Refining,urc.com
717,Tesla Motors,teslamotors.com
718,Groupon,groupon.com
719,Landstar System,landstar.com
720,Patterson-UTI Energy,patenergy.com
721,EP Energy,epenergy.com
722,ON Semiconductor,onsemi.com
723,Rent-A-Center,rentacenter.com
724,SunGard Data Systems,sungard.com
725,Citrix Systems,citrix.com
726,Amkor Technology,amkor.com
727,TD Ameritrade Holding,amtd.com
728,Worthington Industries,worthingtonindustries.com
729,Valmont Industries,valmont.com
730,Iron Mountain,ironmountain.com
731,Puget Energy,pugetenergy.com
732,CME Group,cmegroup.com
733,IAC/InterActiveCorp,iac.com
734,Par Pacific Holdings,parpacific.com
735,Taylor Morrison Home,taylormorrison.com
736,Chiquita Brands International,chiquita.com
737,International Flavors & Fragrances,iff.com
738,Whiting Petroleum,whiting.com
739,Under Armour,uabiz.com
740,Ventas,ventasreit.com
741,NuStar Energy,nustarenergy.com
742,Select Medical Holdings,selectmedicalholdings.com
743,Diebold,diebold.com
744,American National Insurance,anico.com
745,Varian Medical Systems,varian.com
746,Apollo Education Group,apollogrp.edu
747,Westinghouse Air Brake Technologies,wabtec.com
748,SunPower,sunpower.com
749,Warner Music Group,wmg.com
750,American Water Works,amwater.com
751,H&R Block,hrblock.com
752,Mercury General,mercuryinsurance.com
753,TECO Energy,tecoenergy.com
754,Service Corp. International,sci-corp.com
755,Vulcan Materials,vulcanmaterials.com
756,Brown-Forman,brown-forman.com
757,Regal Entertainment Group,regmovies.com
758,Tempur Sealy International,tempursealy.com
759,Steelcase,steelcase.com
760,MWI Veterinary Supply,mwivet.com
761,RS Legacy,radioshackcorporation.com
762,Sprouts Farmers Market,sprouts.com
763,Sabre,sabre.com
764,Martin Marietta Materials,martinmarietta.com
765,Huntington Bancshares,huntington.com
766,Alere,alere.com
767,TreeHouse Foods,treehousefoods.com
768,Arch Coal,archcoal.com
769,KLA-Tencor,kla-tencor.com
770,Crane,craneco.com
771,Iasis Healthcare,iasishealthcare.com
772,BWX Technologies,bwxt.com
773,Dentsply International,dentsply.com
774,Tribune Media,tribunemedia.com
775,ScanSource,scansource.com
776,Univision Communications,corporate.univision.com
777,Brinker International,brinker.com
778,Archrock,archrock.com
779,Carter's,carters.com
780,Analog Devices,analog.com
781,Genesco,genesco.com
782,Scotts Miracle-Gro,scotts.com
783,Convergys,convergys.com
784,Exide Technologies,exide.com
785,WABCO Holdings,wabco-auto.com
786,Kennametal,kennametal.com
787,Amerco,amerco.com
788,Bon-Ton Stores,bonton.com
789,Team Health Holdings,teamhealth.com
790,Regeneron Pharmaceuticals,regeneron.com
791,Springleaf Holdings,springleaf.com
792,Lincoln Electric Holdings,lincolnelectric.com
793,Dresser-Rand Group,dresser-rand.com
794,West,west.com
795,Benchmark Electronics,bench.com
796,Pall,pall.com
797,Old Dominion Freight Line,odfl.com
798,MSC Industrial Direct,mscdirect.com
799,Sentry Insurance Group,sentry.com
800,Sigma-Aldrich,sigma-aldrich.com
801,WGL Holdings,wglholdings.com
802,Weis Markets,weismarkets.com
803,Sanderson Farms,sandersonfarms.com
804,StanCorp Financial Group,stancorpfinancial.com
805,Hyster-Yale Materials Handling,hyster-yale.com
806,Wolverine World Wide,wolverineworldwide.com
807,DST Systems,dstsystems.com
808,Legg Mason,leggmason.com
809,Teradata,teradata.com
810,Aaron's,aarons.com
811,Antero Resources,anteroresources.com
812,Metaldyne Performance Group,mpgdriven.com
813,Range Resources,rangeresources.com
814,Vornado Realty Trust,vno.com
815,Boyd Gaming,boydgaming.com
816,Covance,labcorp.com
817,Armstrong World Industries,armstrong.com
818,Cracker Barrel Old Country Store,crackerbarrel.com
819,Chico's FAS,chicosfas.com
820,Scripps Networks Interactive,scrippsnetworksinteractive.com
821,Universal Forest Products,ufpi.com
822,Concho Resources,concho.com
823,ITT,itt.com
824,HCC Insurance Holdings,hcc.com
825,Moog,moog.com
826,IMS Health Holdings,imshealth.com
827,Cinemark Holdings,cinemark.com
828,Comerica,comerica.com
829,Equity Residential,equityresidential.com
830,Ryland Group,ryland.com
831,GNC Holdings,gnc.com
832,ArcBest,arcb.com
833,Vectren,vectren.com
834,Curtiss-Wright,curtisswright.com
835,Tupperware Brands,tupperwarebrands.com
836,Westar Energy,westarenergy.com
837,Albemarle,albemarle.com
838,AptarGroup,aptar.com
839,Pinnacle Foods,pinnaclefoods.com
840,Penn National Gaming,pngaming.com
841,J.Crew Group,jcrew.com
842,Vantiv,vantiv.com
843,Kansas City Southern,kcsouthern.com
844,Caleres,caleres.com
845,Nu Skin Enterprises,nuskinenterprises.com
846,Great Plains Energy,greatplainsenergy.com
847,Kirby,kirbycorp.com
848,General Growth Properties,ggp.com
849,Broadridge Financial Solutions,broadridge.com
850,Stericycle,stericycle.com
851,Global Payments,globalpaymentsinc.com
852,Nortek,nortekinc.com
853,Schnitzer Steel Industries,schnitzersteel.com
854,Universal,universalcorp.com
855,ANN,anninc.com
856,Hologic,hologic.com
857,Panera Bread,panerabread.com
858,AOL,corp.aol.com
859,SM Energy,sm-energy.com
860,Paychex,paychex.com
861,PriceSmart,pricesmart.com
862,Autodesk,autodesk.com
863,Affiliated Managers Group,amg.com
864,Tops Holding,topsmarkets.com
865,Dynegy,dynegy.com
866,DSW,dswinc.com
867,Vishay Intertechnology,vishay.com
868,Mettler-Toledo International,mt.com
869,SunEdison,sunedison.com
870,Tetra Tech,tetratech.com
871,Momentive Performance Materials,momentive.com
872,EnerSys,enersys.com
873,Donaldson,donaldson.com
874,EQT,eqt.com
875,Monster Beverage,monsterbevcorp.com
876,PC Connection,pcconnection.com
877,Total System Services,tsys.com
878,ServiceMaster Global Holdings,servicemaster.com
879,Medical Mutual of Ohio,medmutual.com
880,Applied Industrial Technologies,applied.com
881,Maxim Integrated Products,maximintegrated.com
882,OGE Energy,oge.com
883,A. Schulman,aschulman.com
884,Equinix,equinix.com
885,Mednax,mednax.com
886,Equifax,equifax.com
887,CalAtlantic Group,calatlantichomes.com
888,Denbury Resources,denbury.com
889,Cimarex Energy,cimarex.com
890,Mutual of America Life Insurance,mutualofamerica.com
891,Guess,guess.com
892,Post Holdings,postholdings.com
893,HealthSouth,healthsouth.com
894,Ferrellgas Partners,ferrellgas.com
895,KB Home,kbhome.com
896,Boston Properties,bostonproperties.com
897,Trimble Navigation,trimble.com
898,Teledyne Technologies,teledyne.com
899,Acuity Brands,acuitybrands.com
900,Skechers U.S.A.,skx.com
901,Xilinx,xilinx.com
902,Plexus,plexus.com
903,Newfield Exploration,newfield.com
904,TransDigm Group,transdigm.com
905,Kar Auction Services,karauctionservices.com
906,Mueller Industries,muellerindustries.com
907,Zions Bancorp.,zionsbancorporation.com
908,Insperity,insperity.com
909,XPO Logistics,xpo.com
910,Sears Hometown & Outlet Stores,shos.com
911,A.O. Smith,aosmith.com
912,Alliance One International,aointl.com
913,Take-Two Interactive Software,take2games.com
914,hhgregg,hhgregg.com
915,RPC,rpc.net
916,NewMarket,newmarket.com
917,Beacon Roofing Supply,becn.com
918,Edwards Lifesciences,edwards.com
919,Triple-S Management,triplesmanagement.com
920,Hawaiian Holdings,hawaiianairlines.com
921,Heartland Payment Systems,heartlandpaymentsystems.com
922,Belden,belden.com
923,Magellan Midstream Partners,magellanlp.com
924,Outerwall,outerwall.com
925,KapStone Paper & Packaging,kapstonepaper.com
926,Alliance Holdings,ahgp.com
927,Skyworks Solutions,skyworksinc.com
928,Ciena,ciena.com
929,Granite Construction,graniteconstruction.com
930,Education Management,edmc.edu
931,Party City Holdings,partycity.com
932,HCP,hcpi.com
933,Parexel International,parexel.com
934,Delta Tucker Holdings,dyn-intl.com
935,Pinnacle Entertainment,pnkinc.com
936,Stifel Financial,stifel.com
937,Pool,poolcorp.com
938,Olin,olin.com
939,Knights of Columbus,kofc.org
940,PerkinElmer,perkinelmer.com
941,Alexion Pharmaceuticals,alexion.com
942,IHS,ihs.com
943,Oil States International,oilstatesintl.com
944,HNI,hnicorp.com
945,LinkedIn,linkedin.com
946,Diplomat Pharmacy,diplomat.is
947,Brocade Communications Systems,brocade.com
948,Greenbrier Cos.,gbrx.com
949,AMC Networks,amcnetworks.com
950,Kemper,kemper.com
951,Ocwen Financial,ocwen.com
952,Public Storage,publicstorage.com
953,TriNet Group,trinet.com
954,Chemtura,chemtura.com
955,Symetra Financial,symetra.com
956,Tower International,towerinternational.com
957,Meritage Homes,meritagehomes.com
958,MarkWest Energy Partners,markwest.com
959,Bio-Rad Laboratories,bio-rad.com
960,TrueBlue,trueblue.com
961,Cabot Oil & Gas,cabotog.com
962,Carpenter Technology,cartech.com
963,Toro,thetorocompany.com
964,American Equity Investment Life Holding,american-equity.com
965,Express,express.com
966,Eastman Kodak,kodak.com
967,Hain Celestial Group,hain.com
968,Nationstar Mortgage Holdings,nationstarmtg.com
969,IDEX,idexcorp.com
970,Popular,popular.com
971,Werner Enterprises,werner.com
972,Esterline Technologies,esterline.com
973,Intuitive Surgical,intuitivesurgical.com
974,Allison Transmission Holdings,allisontransmission.com
975,SemGroup,semgroupcorp.com
976,Southwest Gas,swgas.com
977,G-III Apparel Group,g-iii.com
978,National Fuel Gas,nationalfuelgas.com
979,H.B. Fuller,hbfuller.com
980,Penn Mutual Life Insurance,pennmutual.com
981,RCS Capital,rcscapital.com
982,Columbia Sportswear,columbia.com
983,Amica Mutual Insurance,amica.com
984,Primoris Services,prim.com
985,Energen,energen.com
986,Rexnord,rexnord.com
987,Seventy Seven Energy,77nrg.com
988,Waste Connections,wasteconnections.com
989,"Pep Boys-Manny, Moe & Jack",pepboys.com
990,Harsco,harsco.com
991,Hovnanian Enterprises,khov.com
992,Willbros Group,willbros.com
993,Wendy's,aboutwendys.com
994,International Game Technology,igt.com
995,Synopsys,synopsys.com
996,Universal American,universalamerican.com
997,AAR,aarcorp.com
998,Selective Insurance Group,selective.com
999,Gartner,gartner.com
1000,E*Trade Financial,etrade.com
