{
  "recorded_at": "2021-07-13T11:46:31.736Z",
  "uuid": "00000000-0000-0000-0000-000000000000",
  "hostname": "gdk.test",
  "version": "14.1.0-pre",
  "installation_type": "gitlab-development-kit",
  "active_user_count": 98,
  "edition": "CE",
  "license": {
  },
  "settings": {
    "ldap_encrypted_secrets_enabled": false,
    "operating_system": "mac_os_x-10.15.7",
    "gitaly_apdex": -1,
    "collected_data_categories": [
      "Standard",
      "Subscription",
      "Operational",
      "Optional"
    ]
  },
  "counts": {
    "assignee_lists": 0,
    "boards": 0,
    "ci_builds": 859,
    "ci_internal_pipelines": 97,
    "ci_external_pipelines": 0,
    "ci_pipeline_config_auto_devops": 2,
    "ci_pipeline_config_repository": 8,
    "ci_triggers": 0,
    "ci_pipeline_schedules": 0,
    "auto_devops_enabled": 0,
    "auto_devops_disabled": 2,
    "deploy_keys": 0,
    "deployments": 49,
    "successful_deployments": 0,
    "failed_deployments": 0,
    "environments": 32,
    "clusters": 0,
    "clusters_enabled": 0,
    "project_clusters_enabled": 0,
    "group_clusters_enabled": 0,
    "instance_clusters_enabled": 0,
    "clusters_disabled": 0,
    "project_clusters_disabled": 0,
    "group_clusters_disabled": 0,
    "instance_clusters_disabled": 0,
    "clusters_platforms_eks": 0,
    "clusters_platforms_gke": 0,
    "clusters_platforms_user": 0,
    "clusters_applications_helm": 0,
    "clusters_applications_ingress": 0,
    "clusters_applications_cert_managers": 0,
    "clusters_applications_crossplane": 0,
    "clusters_applications_prometheus": 0,
    "clusters_applications_runner": 0,
    "clusters_applications_knative": 0,
    "clusters_applications_elastic_stack": 0,
    "clusters_applications_jupyter": 0,
    "clusters_applications_cilium": 0,
    "clusters_management_project": 0,
    "kubernetes_agents": 0,
    "kubernetes_agents_with_token": 0,
    "in_review_folder": 17,
    "grafana_integrated_projects": 0,
    "groups": 10,
    "issues": 531,
    "issues_created_from_gitlab_error_tracking_ui": 0,
    "issues_with_associated_zoom_link": 0,
    "issues_using_zoom_quick_actions": 0,
    "issues_with_embedded_grafana_charts_approx": 0,
    "issues_created_from_alerts": 0,
    "issues_created_gitlab_alerts": 0,
    "issues_created_manually_from_alerts": 0,
    "incident_issues": 0,
    "alert_bot_incident_issues": 0,
    "incident_labeled_issues": 0,
    "keys": 10,
    "label_lists": 0,
    "lfs_objects": 5,
    "milestone_lists": 0,
    "milestones": 62,
    "projects_with_packages": 5,
    "packages": 25,
    "pages_domains": 0,
    "pool_repositories": 2,
    "projects": 24,
    "projects_creating_incidents": 0,
    "projects_imported_from_github": 0,
    "projects_with_repositories_enabled": 24,
    "projects_with_tracing_enabled": 0,
    "projects_with_error_tracking_enabled": 0,
    "projects_with_alerts_created": 0,
    "projects_with_enabled_alert_integrations": 0,
    "projects_with_terraform_reports": 0,
    "projects_with_terraform_states": 0,
    "protected_branches": 29,
    "protected_branches_except_default": 0,
    "releases": 0,
    "remote_mirrors": 0,
    "personal_snippets": 22,
    "project_snippets": 0,
    "suggestions": 0,
    "terraform_reports": 0,
    "terraform_states": 0,
    "todos": 475,
    "uploads": 6,
    "web_hooks": 0,
    "labels": 140,
    "merge_requests": 100,
    "notes": 1623,
    "ci_runners": 1,
    "ci_runners_instance_type_active": 1,
    "ci_runners_group_type_active": 0,
    "ci_runners_project_type_active": 0,
    "ci_runners_instance_type_active_online": 1,
    "ci_runners_group_type_active_online": 0,
    "ci_runners_project_type_active_online": 0,
    "projects_asana_active": 0,
    "groups_asana_active": 0,
    "templates_asana_active": 0,
    "instances_asana_active": 0,
    "projects_inheriting_asana_active": 0,
    "groups_inheriting_asana_active": 0,
    "projects_assembla_active": 0,
    "groups_assembla_active": 0,
    "templates_assembla_active": 0,
    "instances_assembla_active": 0,
    "projects_inheriting_assembla_active": 0,
    "groups_inheriting_assembla_active": 0,
    "projects_bamboo_active": 0,
    "groups_bamboo_active": 0,
    "templates_bamboo_active": 0,
    "instances_bamboo_active": 0,
    "projects_inheriting_bamboo_active": 0,
    "groups_inheriting_bamboo_active": 0,
    "projects_bugzilla_active": 0,
    "groups_bugzilla_active": 0,
    "templates_bugzilla_active": 0,
    "instances_bugzilla_active": 0,
    "projects_inheriting_bugzilla_active": 0,
    "groups_inheriting_bugzilla_active": 0,
    "projects_buildkite_active": 0,
    "groups_buildkite_active": 0,
    "templates_buildkite_active": 0,
    "instances_buildkite_active": 0,
    "projects_inheriting_buildkite_active": 0,
    "groups_inheriting_buildkite_active": 0,
    "projects_campfire_active": 0,
    "groups_campfire_active": 0,
    "templates_campfire_active": 0,
    "instances_campfire_active": 0,
    "projects_inheriting_campfire_active": 0,
    "groups_inheriting_campfire_active": 0,
    "projects_confluence_active": 0,
    "groups_confluence_active": 0,
    "templates_confluence_active": 0,
    "instances_confluence_active": 0,
    "projects_inheriting_confluence_active": 0,
    "groups_inheriting_confluence_active": 0,
    "projects_custom_issue_tracker_active": 0,
    "groups_custom_issue_tracker_active": 0,
    "templates_custom_issue_tracker_active": 0,
    "instances_custom_issue_tracker_active": 0,
    "projects_inheriting_custom_issue_tracker_active": 0,
    "groups_inheriting_custom_issue_tracker_active": 0,
    "projects_datadog_active": 0,
    "groups_datadog_active": 0,
    "templates_datadog_active": 0,
    "instances_datadog_active": 0,
    "projects_inheriting_datadog_active": 0,
    "groups_inheriting_datadog_active": 0,
    "projects_discord_active": 1,
    "groups_discord_active": 0,
    "templates_discord_active": 0,
    "instances_discord_active": 0,
    "projects_inheriting_discord_active": 0,
    "groups_inheriting_discord_active": 0,
    "projects_drone_ci_active": 0,
    "groups_drone_ci_active": 0,
    "templates_drone_ci_active": 0,
    "instances_drone_ci_active": 0,
    "projects_inheriting_drone_ci_active": 0,
    "groups_inheriting_drone_ci_active": 0,
    "projects_emails_on_push_active": 0,
    "groups_emails_on_push_active": 0,
    "templates_emails_on_push_active": 0,
    "instances_emails_on_push_active": 0,
    "projects_inheriting_emails_on_push_active": 0,
    "groups_inheriting_emails_on_push_active": 0,
    "projects_ewm_active": 0,
    "groups_ewm_active": 0,
    "templates_ewm_active": 0,
    "instances_ewm_active": 0,
    "projects_inheriting_ewm_active": 0,
    "groups_inheriting_ewm_active": 0,
    "projects_external_wiki_active": 0,
    "groups_external_wiki_active": 0,
    "templates_external_wiki_active": 0,
    "instances_external_wiki_active": 0,
    "projects_inheriting_external_wiki_active": 0,
    "groups_inheriting_external_wiki_active": 0,
    "projects_flowdock_active": 0,
    "groups_flowdock_active": 0,
    "templates_flowdock_active": 0,
    "instances_flowdock_active": 0,
    "projects_inheriting_flowdock_active": 0,
    "groups_inheriting_flowdock_active": 0,
    "projects_hangouts_chat_active": 0,
    "groups_hangouts_chat_active": 0,
    "templates_hangouts_chat_active": 0,
    "instances_hangouts_chat_active": 0,
    "projects_inheriting_hangouts_chat_active": 0,
    "groups_inheriting_hangouts_chat_active": 0,
    "projects_irker_active": 0,
    "groups_irker_active": 0,
    "templates_irker_active": 0,
    "instances_irker_active": 0,
    "projects_inheriting_irker_active": 0,
    "groups_inheriting_irker_active": 0,
    "projects_jenkins_active": 0,
    "groups_jenkins_active": 0,
    "templates_jenkins_active": 0,
    "instances_jenkins_active": 0,
    "projects_inheriting_jenkins_active": 0,
    "groups_inheriting_jenkins_active": 0,
    "projects_jira_active": 0,
    "groups_jira_active": 0,
    "templates_jira_active": 0,
    "instances_jira_active": 0,
    "projects_inheriting_jira_active": 0,
    "groups_inheriting_jira_active": 0,
    "projects_mattermost_active": 0,
    "groups_mattermost_active": 0,
    "templates_mattermost_active": 0,
    "instances_mattermost_active": 0,
    "projects_inheriting_mattermost_active": 0,
    "groups_inheriting_mattermost_active": 0,
    "projects_mattermost_slash_commands_active": 0,
    "groups_mattermost_slash_commands_active": 0,
    "templates_mattermost_slash_commands_active": 0,
    "instances_mattermost_slash_commands_active": 0,
    "projects_inheriting_mattermost_slash_commands_active": 0,
    "groups_inheriting_mattermost_slash_commands_active": 0,
    "projects_microsoft_teams_active": 0,
    "groups_microsoft_teams_active": 0,
    "templates_microsoft_teams_active": 0,
    "instances_microsoft_teams_active": 0,
    "projects_inheriting_microsoft_teams_active": 0,
    "groups_inheriting_microsoft_teams_active": 0,
    "projects_packagist_active": 0,
    "groups_packagist_active": 0,
    "templates_packagist_active": 0,
    "instances_packagist_active": 0,
    "projects_inheriting_packagist_active": 0,
    "groups_inheriting_packagist_active": 0,
    "projects_pipelines_email_active": 0,
    "groups_pipelines_email_active": 0,
    "templates_pipelines_email_active": 0,
    "instances_pipelines_email_active": 0,
    "projects_inheriting_pipelines_email_active": 0,
    "groups_inheriting_pipelines_email_active": 0,
    "projects_pivotaltracker_active": 0,
    "groups_pivotaltracker_active": 0,
    "templates_pivotaltracker_active": 0,
    "instances_pivotaltracker_active": 0,
    "projects_inheriting_pivotaltracker_active": 0,
    "groups_inheriting_pivotaltracker_active": 0,
    "projects_prometheus_active": 0,
    "groups_prometheus_active": 0,
    "templates_prometheus_active": 0,
    "instances_prometheus_active": 0,
    "projects_inheriting_prometheus_active": 0,
    "groups_inheriting_prometheus_active": 0,
    "projects_pushover_active": 0,
    "groups_pushover_active": 0,
    "templates_pushover_active": 0,
    "instances_pushover_active": 0,
    "projects_inheriting_pushover_active": 0,
    "groups_inheriting_pushover_active": 0,
    "projects_redmine_active": 0,
    "groups_redmine_active": 0,
    "templates_redmine_active": 0,
    "instances_redmine_active": 0,
    "projects_inheriting_redmine_active": 0,
    "groups_inheriting_redmine_active": 0,
    "projects_slack_active": 0,
    "groups_slack_active": 0,
    "templates_slack_active": 0,
    "instances_slack_active": 0,
    "projects_inheriting_slack_active": 0,
    "groups_inheriting_slack_active": 0,
    "projects_slack_slash_commands_active": 0,
    "groups_slack_slash_commands_active": 0,
    "templates_slack_slash_commands_active": 0,
    "instances_slack_slash_commands_active": 0,
    "projects_inheriting_slack_slash_commands_active": 0,
    "groups_inheriting_slack_slash_commands_active": 0,
    "projects_teamcity_active": 0,
    "groups_teamcity_active": 0,
    "templates_teamcity_active": 0,
    "instances_teamcity_active": 0,
    "projects_inheriting_teamcity_active": 0,
    "groups_inheriting_teamcity_active": 0,
    "projects_unify_circuit_active": 0,
    "groups_unify_circuit_active": 0,
    "templates_unify_circuit_active": 0,
    "instances_unify_circuit_active": 0,
    "projects_inheriting_unify_circuit_active": 0,
    "groups_inheriting_unify_circuit_active": 0,
    "projects_webex_teams_active": 0,
    "groups_webex_teams_active": 0,
    "templates_webex_teams_active": 0,
    "instances_webex_teams_active": 0,
    "projects_inheriting_webex_teams_active": 0,
    "groups_inheriting_webex_teams_active": 0,
    "projects_youtrack_active": 0,
    "groups_youtrack_active": 0,
    "templates_youtrack_active": 0,
    "instances_youtrack_active": 0,
    "projects_inheriting_youtrack_active": 0,
    "groups_inheriting_youtrack_active": 0,
    "projects_jira_server_active": 0,
    "projects_jira_cloud_active": 0,
    "projects_jira_dvcs_cloud_active": 0,
    "projects_jira_dvcs_server_active": 0,
    "jira_imports_total_imported_count": 0,
    "jira_imports_projects_count": 0,
    "jira_imports_total_imported_issues_count": 0,
    "package_events_i_package_composer_delete_package": 0,
    "package_events_i_package_composer_pull_package": 0,
    "package_events_i_package_composer_push_package": 0,
    "package_events_i_package_conan_delete_package": 0,
    "package_events_i_package_conan_pull_package": 0,
    "package_events_i_package_conan_push_package": 0,
    "package_events_i_package_container_delete_package": 0,
    "package_events_i_package_container_pull_package": 0,
    "package_events_i_package_container_push_package": 0,
    "package_events_i_package_debian_delete_package": 0,
    "package_events_i_package_debian_pull_package": 0,
    "package_events_i_package_debian_push_package": 0,
    "package_events_i_package_delete_package": 0,
    "package_events_i_package_delete_package_by_deploy_token": 0,
    "package_events_i_package_delete_package_by_guest": 0,
    "package_events_i_package_delete_package_by_user": 0,
    "package_events_i_package_generic_delete_package": 0,
    "package_events_i_package_generic_pull_package": 0,
    "package_events_i_package_generic_push_package": 0,
    "package_events_i_package_golang_delete_package": 0,
    "package_events_i_package_golang_pull_package": 0,
    "package_events_i_package_golang_push_package": 0,
    "package_events_i_package_helm_pull_package": 0,
    "package_events_i_package_helm_push_package": 0,
    "package_events_i_package_maven_delete_package": 0,
    "package_events_i_package_maven_pull_package": 0,
    "package_events_i_package_maven_push_package": 0,
    "package_events_i_package_npm_delete_package": 0,
    "package_events_i_package_npm_pull_package": 0,
    "package_events_i_package_npm_push_package": 0,
    "package_events_i_package_nuget_delete_package": 0,
    "package_events_i_package_nuget_pull_package": 0,
    "package_events_i_package_nuget_push_package": 0,
    "package_events_i_package_pull_package": 0,
    "package_events_i_package_pull_package_by_deploy_token": 0,
    "package_events_i_package_pull_package_by_guest": 0,
    "package_events_i_package_pull_package_by_user": 0,
    "package_events_i_package_push_package": 0,
    "package_events_i_package_push_package_by_deploy_token": 0,
    "package_events_i_package_push_package_by_guest": 0,
    "package_events_i_package_push_package_by_user": 0,
    "package_events_i_package_pypi_delete_package": 0,
    "package_events_i_package_pypi_pull_package": 0,
    "package_events_i_package_pypi_push_package": 0,
    "package_events_i_package_rubygems_delete_package": 0,
    "package_events_i_package_rubygems_pull_package": 0,
    "package_events_i_package_rubygems_push_package": 0,
    "package_events_i_package_tag_delete_package": 0,
    "package_events_i_package_tag_pull_package": 0,
    "package_events_i_package_tag_push_package": 0,
    "package_events_i_package_terraform_module_delete_package": 0,
    "package_events_i_package_terraform_module_pull_package": 0,
    "package_events_i_package_terraform_module_push_package": 0,
    "wiki_pages_view": 0,
    "wiki_pages_create": 0,
    "wiki_pages_update": 0,
    "wiki_pages_delete": 0,
    "web_ide_commits": 0,
    "web_ide_views": 0,
    "web_ide_merge_requests": 0,
    "web_ide_previews": 0,
    "web_ide_terminals": 0,
    "web_ide_pipelines": 0,
    "snippet_comment": 0,
    "commit_comment": 0,
    "merge_request_comment": 0,
    "snippet_create": 0,
    "snippet_update": 0,
    "all_searches": 0,
    "navbar_searches": 0,
    "cycle_analytics_views": 0,
    "productivity_analytics_views": 0,
    "source_code_pushes": 0,
    "merge_request_create": 0,
    "design_management_designs_create": 0,
    "design_management_designs_update": 0,
    "design_management_designs_delete": 0,
    "kubernetes_agent_gitops_sync": 0,
    "kubernetes_agent_k8s_api_proxy_request": 0,
    "static_site_editor_views": 0,
    "static_site_editor_commits": 0,
    "static_site_editor_merge_requests": 0,
    "user_preferences_user_gitpod_enabled": 0,
    "projects_with_expiration_policy_disabled": 24,
    "projects_with_expiration_policy_enabled": 0,
    "projects_with_expiration_policy_enabled_with_keep_n_set_to_1": 0,
    "projects_with_expiration_policy_enabled_with_keep_n_set_to_5": 0,
    "projects_with_expiration_policy_enabled_with_keep_n_set_to_10": 0,
    "projects_with_expiration_policy_enabled_with_keep_n_set_to_25": 0,
    "projects_with_expiration_policy_enabled_with_keep_n_set_to_50": 0,
    "projects_with_expiration_policy_enabled_with_keep_n_set_to_100": 0,
    "projects_with_expiration_policy_enabled_with_cadence_set_to_1d": 0,
    "projects_with_expiration_policy_enabled_with_cadence_set_to_7d": 0,
    "projects_with_expiration_policy_enabled_with_cadence_set_to_14d": 0,
    "projects_with_expiration_policy_enabled_with_cadence_set_to_1month": 0,
    "projects_with_expiration_policy_enabled_with_cadence_set_to_3month": 0,
    "projects_with_expiration_policy_enabled_with_older_than_set_to_7d": 0,
    "projects_with_expiration_policy_enabled_with_older_than_set_to_14d": 0,
    "projects_with_expiration_policy_enabled_with_older_than_set_to_30d": 0,
    "projects_with_expiration_policy_enabled_with_older_than_set_to_90d": 0,
    "projects_with_expiration_policy_enabled_with_keep_n_unset": 0,
    "projects_with_expiration_policy_enabled_with_older_than_unset": 0,
    "service_desk_enabled_projects": 21,
    "service_desk_issues": 0,
    "in_product_marketing_email_create_0_sent": 0,
    "in_product_marketing_email_create_0_cta_clicked": 0,
    "in_product_marketing_email_create_1_sent": 0,
    "in_product_marketing_email_create_1_cta_clicked": 0,
    "in_product_marketing_email_create_2_sent": 0,
    "in_product_marketing_email_create_2_cta_clicked": 0,
    "in_product_marketing_email_verify_0_sent": 0,
    "in_product_marketing_email_verify_0_cta_clicked": 0,
    "in_product_marketing_email_verify_1_sent": 0,
    "in_product_marketing_email_verify_1_cta_clicked": 0,
    "in_product_marketing_email_verify_2_sent": 0,
    "in_product_marketing_email_verify_2_cta_clicked": 0,
    "in_product_marketing_email_trial_0_sent": 0,
    "in_product_marketing_email_trial_0_cta_clicked": 0,
    "in_product_marketing_email_trial_1_sent": 0,
    "in_product_marketing_email_trial_1_cta_clicked": 0,
    "in_product_marketing_email_trial_2_sent": 0,
    "in_product_marketing_email_trial_2_cta_clicked": 0,
    "in_product_marketing_email_team_0_sent": 0,
    "in_product_marketing_email_team_0_cta_clicked": 0,
    "in_product_marketing_email_team_1_sent": 0,
    "in_product_marketing_email_team_1_cta_clicked": 0,
    "in_product_marketing_email_team_2_sent": 0,
    "in_product_marketing_email_team_2_cta_clicked": 0,
    "in_product_marketing_email_experience_0_sent": 0,
    "snippets": 22
  },
  "counts_monthly": {
    "deployments": 0,
    "successful_deployments": 0,
    "failed_deployments": 0,
    "projects": 0,
    "packages": 0,
    "personal_snippets": 0,
    "project_snippets": 0,
    "projects_with_alerts_created": 0,
    "snippets": 0,
    "aggregated_metrics": {
      "compliance_features_track_unique_visits_union": 0,
      "incident_management_alerts_total_unique_counts": 0,
      "incident_management_incidents_total_unique_counts": 0,
      "i_testing_paid_monthly_active_user_total": 0,
      "code_review_group_monthly_active_users": 0,
      "code_review_category_monthly_active_users": 0,
      "code_review_extension_category_monthly_active_users": 0
    }
  },
  "counts_weekly": {
    "aggregated_metrics": {
      "compliance_features_track_unique_visits_union": 0,
      "incident_management_alerts_total_unique_counts": 0,
      "incident_management_incidents_total_unique_counts": 0,
      "i_testing_paid_monthly_active_user_total": 0,
      "code_review_group_monthly_active_users": 0,
      "code_review_category_monthly_active_users": 0,
      "code_review_extension_category_monthly_active_users": 0
    }
  },
  "instance_auto_devops_enabled": true,
  "container_registry_enabled": true,
  "dependency_proxy_enabled": false,
  "gitlab_shared_runners_enabled": true,
  "gravatar_enabled": true,
  "ldap_enabled": false,
  "mattermost_enabled": false,
  "omniauth_enabled": true,
  "prometheus_enabled": false,
  "prometheus_metrics_enabled": true,
  "reply_by_email_enabled": false,
  "signup_enabled": true,
  "web_ide_clientside_preview_enabled": false,
  "grafana_link_enabled": false,
  "gitpod_enabled": false,
  "git": {
    "version": {
      "major": 2,
      "minor": 31,
      "patch": 1
    }
  },
  "gitaly": {
    "version": "14.0.0-rc1-12-g8fd337f0f",
    "servers": 1,
    "clusters": 0,
    "filesystems": [
      "apfs"
    ]
  },
  "gitlab_pages": {
    "enabled": true,
    "version": "1.40.0"
  },
  "container_registry_server": {
    "vendor": "",
    "version": ""
  },
  "database": {
    "adapter": "postgresql",
    "version": "12.6",
    "pg_system_id": 6963539046834264956
  },
  "mail": {
    "smtp_server": "localhost"
  },
  "object_store": {
    "artifacts": {
      "enabled": true,
      "object_store": {
        "enabled": false,
        "direct_upload": true,
        "background_upload": true,
        "provider": "AWS"
      }
    },
    "external_diffs": {
      "enabled": false,
      "object_store": {
        "enabled": false,
        "direct_upload": true,
        "background_upload": true,
        "provider": "AWS"
      }
    },
    "lfs": {
      "enabled": true,
      "object_store": {
        "enabled": false,
        "direct_upload": true,
        "background_upload": true,
        "provider": "AWS"
      }
    },
    "uploads": {
      "enabled": null,
      "object_store": {
        "enabled": false,
        "direct_upload": true,
        "background_upload": true,
        "provider": "AWS"
      }
    },
    "packages": {
      "enabled": true,
      "object_store": {
        "enabled": false,
        "direct_upload": true,
        "background_upload": true,
        "provider": "AWS"
      }
    }
  },
  "topology": {
    "duration_s": 0.0007220000261440873,
    "failures": [

    ]
  },
  "usage_activity_by_stage": {
    "configure": {
      "clusters_applications_cert_managers": 0,
      "clusters_applications_helm": 0,
      "clusters_applications_ingress": 0,
      "clusters_applications_knative": 0,
      "clusters_management_project": 0,
      "clusters_disabled": 0,
      "clusters_enabled": 0,
      "clusters_platforms_gke": 0,
      "clusters_platforms_eks": 0,
      "clusters_platforms_user": 0,
      "instance_clusters_disabled": 0,
      "instance_clusters_enabled": 0,
      "group_clusters_disabled": 0,
      "group_clusters_enabled": 0,
      "project_clusters_disabled": 0,
      "project_clusters_enabled": 0
    },
    "create": {
      "deploy_keys": 0,
      "keys": 10,
      "merge_requests": 29,
      "projects_with_disable_overriding_approvers_per_merge_request": 0,
      "projects_without_disable_overriding_approvers_per_merge_request": 24,
      "remote_mirrors": 0,
      "snippets": 13,
      "suggestions": 0
    },
    "enablement": {
    },
    "manage": {
      "events": 75,
      "groups": 17,
      "users_created": 100,
      "omniauth_providers": [
        "google_oauth2"
      ],
      "user_auth_by_provider": {
        "two-factor": 0,
        "two-factor-via-u2f-device": 0,
        "two-factor-via-webauthn-device": 0,
        "standard": 1,
        "google_oauth2": 0
      },
      "unique_users_all_imports": 1,
      "bulk_imports": {
        "gitlab": -1000,
        "gitlab_v1": 0
      },
      "project_imports": {
        "gitlab_project": 5,
        "gitlab": 0,
        "github": 0,
        "bitbucket": 0,
        "bitbucket_server": 0,
        "gitea": 0,
        "git": 0,
        "manifest": 0,
        "gitlab_migration": 0,
        "total": 5
      },
      "issue_imports": {
        "jira": 0,
        "fogbugz": 0,
        "phabricator": 0,
        "csv": 0
      },
      "group_imports": {
        "group_import": 0,
        "gitlab_migration": 0
      },
      "projects_imported": {
        "total": -1000,
        "gitlab_project": -1000,
        "gitlab": -1000,
        "github": -1000,
        "bitbucket": -1000,
        "bitbucket_server": -1000,
        "gitea": -1000,
        "git": -1000,
        "manifest": -1000
      },
      "issues_imported": {
        "jira": -1000,
        "fogbugz": -1000,
        "phabricator": -1000,
        "csv": -1000
      },
      "groups_imported": -1000
    },
    "monitor": {
      "clusters": 0,
      "clusters_applications_prometheus": 0,
      "operations_dashboard_default_dashboard": 0,
      "projects_with_tracing_enabled": 0,
      "projects_with_error_tracking_enabled": 0,
      "projects_with_incidents": 0,
      "projects_with_alert_incidents": 0,
      "projects_with_enabled_alert_integrations_histogram": {
      }
    },
    "package": {
      "projects_with_packages": 4
    },
    "plan": {
      "issues": 21,
      "notes": 21,
      "projects": 10,
      "todos": 21,
      "service_desk_enabled_projects": 10,
      "service_desk_issues": 0,
      "projects_jira_active": 0,
      "projects_jira_dvcs_cloud_active": 0,
      "projects_jira_dvcs_server_active": 0
    },
    "release": {
      "deployments": 0,
      "failed_deployments": 0,
      "releases": 0,
      "successful_deployments": 0
    },
    "secure": {
    },
    "verify": {
      "ci_builds": 21,
      "ci_external_pipelines": 0,
      "ci_internal_pipelines": 2,
      "ci_pipeline_config_auto_devops": 1,
      "ci_pipeline_config_repository": 1,
      "ci_pipeline_schedules": 0,
      "ci_pipelines": 2,
      "ci_triggers": 0,
      "clusters_applications_runner": 0
    }
  },
  "usage_activity_by_stage_monthly": {
    "configure": {
      "clusters_applications_cert_managers": 0,
      "clusters_applications_helm": 0,
      "clusters_applications_ingress": 0,
      "clusters_applications_knative": 0,
      "clusters_management_project": 0,
      "clusters_disabled": 0,
      "clusters_enabled": 0,
      "clusters_platforms_gke": 0,
      "clusters_platforms_eks": 0,
      "clusters_platforms_user": 0,
      "instance_clusters_disabled": 0,
      "instance_clusters_enabled": 0,
      "group_clusters_disabled": 0,
      "group_clusters_enabled": 0,
      "project_clusters_disabled": 0,
      "project_clusters_enabled": 0
    },
    "create": {
      "deploy_keys": 0,
      "keys": 0,
      "merge_requests": 0,
      "projects_with_disable_overriding_approvers_per_merge_request": 0,
      "projects_without_disable_overriding_approvers_per_merge_request": 0,
      "remote_mirrors": 0,
      "snippets": 0,
      "suggestions": 0,
      "merge_requests_users": 0,
      "action_monthly_active_users_project_repo": 0,
      "action_monthly_active_users_design_management": 0,
      "action_monthly_active_users_wiki_repo": 0,
      "action_monthly_active_users_git_write": 0,
      "action_monthly_active_users_web_ide_edit": 0,
      "action_monthly_active_users_sfe_edit": 0,
      "action_monthly_active_users_snippet_editor_edit": 0,
      "action_monthly_active_users_sse_edit": 0,
      "action_monthly_active_users_ide_edit": 0
    },
    "enablement": {
    },
    "manage": {
      "events": 0,
      "groups": 0,
      "users_created": 0,
      "omniauth_providers": [
        "google_oauth2"
      ],
      "user_auth_by_provider": {
        "two-factor": 0,
        "two-factor-via-u2f-device": 0,
        "two-factor-via-webauthn-device": 0,
        "standard": 1,
        "google_oauth2": 0
      },
      "unique_users_all_imports": 0,
      "bulk_imports": {
        "gitlab": -1000,
        "gitlab_v1": 0
      },
      "project_imports": {
        "gitlab_project": 0,
        "gitlab": 0,
        "github": 0,
        "bitbucket": 0,
        "bitbucket_server": 0,
        "gitea": 0,
        "git": 0,
        "manifest": 0,
        "gitlab_migration": 0,
        "total": 0
      },
      "issue_imports": {
        "jira": 0,
        "fogbugz": 0,
        "phabricator": 0,
        "csv": 0
      },
      "group_imports": {
        "group_import": 0,
        "gitlab_migration": 0
      },
      "projects_imported": {
        "total": -1000,
        "gitlab_project": -1000,
        "gitlab": -1000,
        "github": -1000,
        "bitbucket": -1000,
        "bitbucket_server": -1000,
        "gitea": -1000,
        "git": -1000,
        "manifest": -1000
      },
      "issues_imported": {
        "jira": -1000,
        "fogbugz": -1000,
        "phabricator": -1000,
        "csv": -1000
      },
      "groups_imported": -1000
    },
    "monitor": {
      "clusters": 0,
      "clusters_applications_prometheus": 0,
      "operations_dashboard_default_dashboard": 0,
      "projects_with_tracing_enabled": 0,
      "projects_with_error_tracking_enabled": 0,
      "projects_with_incidents": 0,
      "projects_with_alert_incidents": 0
    },
    "package": {
      "projects_with_packages": 0
    },
    "plan": {
      "issues": 0,
      "notes": 0,
      "projects": 0,
      "todos": 0,
      "service_desk_enabled_projects": 0,
      "service_desk_issues": 0,
      "projects_jira_active": 0,
      "projects_jira_dvcs_cloud_active": 0,
      "projects_jira_dvcs_server_active": 0
    },
    "release": {
      "deployments": 0,
      "failed_deployments": 0,
      "releases": 0,
      "successful_deployments": 0
    },
    "secure": {
    },
    "verify": {
      "ci_builds": 1,
      "ci_external_pipelines": 0,
      "ci_internal_pipelines": 1,
      "ci_pipeline_config_auto_devops": 0,
      "ci_pipeline_config_repository": 0,
      "ci_pipeline_schedules": 0,
      "ci_pipelines": 1,
      "ci_triggers": 0,
      "clusters_applications_runner": 0
    }
  },
  "analytics_unique_visits": {
    "users_viewing_analytics_group_devops_adoption": 0,
    "i_analytics_dev_ops_adoption": 0,
    "i_analytics_dev_ops_score": 0,
    "p_analytics_merge_request": 0,
    "i_analytics_instance_statistics": 0,
    "g_analytics_contribution": 0,
    "g_analytics_insights": 0,
    "g_analytics_issues": 0,
    "g_analytics_productivity": 0,
    "g_analytics_valuestream": 0,
    "p_analytics_pipelines": 0,
    "p_analytics_code_reviews": 0,
    "p_analytics_valuestream": 0,
    "p_analytics_insights": 0,
    "p_analytics_issues": 0,
    "p_analytics_repo": 0,
    "i_analytics_cohorts": 0,
    "analytics_unique_visits_for_any_target": 0,
    "analytics_unique_visits_for_any_target_monthly": 0
  },
  "compliance_unique_visits": {
    "g_compliance_dashboard": 0,
    "g_compliance_audit_events": 0,
    "i_compliance_audit_events": 0,
    "i_compliance_credential_inventory": 0,
    "a_compliance_audit_events_api": 0,
    "compliance_unique_visits_for_any_target": 0,
    "compliance_unique_visits_for_any_target_monthly": 0
  },
  "search_unique_visits": {
    "i_search_total": 0,
    "i_search_advanced": 0,
    "i_search_paid": 0,
    "search_unique_visits_for_any_target_weekly": 0,
    "search_unique_visits_for_any_target_monthly": 0
  },
  "redis_hll_counters": {
    "compliance": {
      "g_compliance_dashboard_weekly": 0,
      "g_compliance_dashboard_monthly": 0,
      "g_compliance_audit_events_weekly": 0,
      "g_compliance_audit_events_monthly": 0,
      "i_compliance_audit_events_weekly": 0,
      "i_compliance_audit_events_monthly": 0,
      "i_compliance_credential_inventory_weekly": 0,
      "i_compliance_credential_inventory_monthly": 0,
      "a_compliance_audit_events_api_weekly": 0,
      "a_compliance_audit_events_api_monthly": 0,
      "compliance_total_unique_counts_weekly": 0,
      "compliance_total_unique_counts_monthly": 0
    },
    "ide_edit": {
      "g_edit_by_web_ide_weekly": 0,
      "g_edit_by_web_ide_monthly": 0,
      "g_edit_by_sfe_weekly": 0,
      "g_edit_by_sfe_monthly": 0,
      "g_edit_by_sse_weekly": 0,
      "g_edit_by_sse_monthly": 0,
      "g_edit_by_snippet_ide_weekly": 0,
      "g_edit_by_snippet_ide_monthly": 0,
      "ide_edit_total_unique_counts_weekly": 0,
      "ide_edit_total_unique_counts_monthly": 0
    },
    "search": {
      "i_search_total_weekly": 0,
      "i_search_total_monthly": 0,
      "i_search_advanced_weekly": 0,
      "i_search_advanced_monthly": 0,
      "i_search_paid_weekly": 0,
      "i_search_paid_monthly": 0,
      "search_total_unique_counts_weekly": 0,
      "search_total_unique_counts_monthly": 0
    },
    "source_code": {
      "wiki_action_weekly": 0,
      "wiki_action_monthly": 0,
      "design_action_weekly": 0,
      "design_action_monthly": 0,
      "project_action_weekly": 0,
      "project_action_monthly": 0,
      "git_write_action_weekly": 0,
      "git_write_action_monthly": 0,
      "merge_request_action_weekly": 0,
      "merge_request_action_monthly": 0,
      "i_source_code_code_intelligence_weekly": 0,
      "i_source_code_code_intelligence_monthly": 0
    },
    "incident_management": {
      "incident_management_alert_status_changed_weekly": 0,
      "incident_management_alert_status_changed_monthly": 0,
      "incident_management_alert_assigned_weekly": 0,
      "incident_management_alert_assigned_monthly": 0,
      "incident_management_alert_todo_weekly": 0,
      "incident_management_alert_todo_monthly": 0,
      "incident_management_incident_created_weekly": 0,
      "incident_management_incident_created_monthly": 0,
      "incident_management_incident_reopened_weekly": 0,
      "incident_management_incident_reopened_monthly": 0,
      "incident_management_incident_closed_weekly": 0,
      "incident_management_incident_closed_monthly": 0,
      "incident_management_incident_assigned_weekly": 0,
      "incident_management_incident_assigned_monthly": 0,
      "incident_management_incident_todo_weekly": 0,
      "incident_management_incident_todo_monthly": 0,
      "incident_management_incident_comment_weekly": 0,
      "incident_management_incident_comment_monthly": 0,
      "incident_management_incident_zoom_meeting_weekly": 0,
      "incident_management_incident_zoom_meeting_monthly": 0,
      "incident_management_incident_published_weekly": 0,
      "incident_management_incident_published_monthly": 0,
      "incident_management_incident_relate_weekly": 0,
      "incident_management_incident_relate_monthly": 0,
      "incident_management_incident_unrelate_weekly": 0,
      "incident_management_incident_unrelate_monthly": 0,
      "incident_management_incident_change_confidential_weekly": 0,
      "incident_management_incident_change_confidential_monthly": 0,
      "incident_management_total_unique_counts_weekly": 0,
      "incident_management_total_unique_counts_monthly": 0
    },
    "incident_management_alerts": {
      "incident_management_alert_create_incident_weekly": 0,
      "incident_management_alert_create_incident_monthly": 0
    },
    "incident_management_oncall": {
      "i_incident_management_oncall_notification_sent_weekly": 0,
      "i_incident_management_oncall_notification_sent_monthly": 0
    },
    "testing": {
      "i_testing_test_case_parsed_weekly": 0,
      "i_testing_test_case_parsed_monthly": 0,
      "i_testing_metrics_report_widget_total_weekly": 0,
      "i_testing_metrics_report_widget_total_monthly": 0,
      "i_testing_group_code_coverage_visit_total_weekly": 0,
      "i_testing_group_code_coverage_visit_total_monthly": 0,
      "i_testing_full_code_quality_report_total_weekly": 0,
      "i_testing_full_code_quality_report_total_monthly": 0,
      "i_testing_web_performance_widget_total_weekly": 0,
      "i_testing_web_performance_widget_total_monthly": 0,
      "i_testing_group_code_coverage_project_click_total_weekly": 0,
      "i_testing_group_code_coverage_project_click_total_monthly": 0,
      "i_testing_load_performance_widget_total_weekly": 0,
      "i_testing_load_performance_widget_total_monthly": 0,
      "i_testing_metrics_report_artifact_uploaders_weekly": 0,
      "i_testing_metrics_report_artifact_uploaders_monthly": 0,
      "i_testing_summary_widget_total_weekly": 0,
      "i_testing_summary_widget_total_monthly": 0,
      "users_expanding_testing_code_quality_report_weekly": 0,
      "users_expanding_testing_code_quality_report_monthly": 0,
      "users_expanding_testing_accessibility_report_weekly": 0,
      "users_expanding_testing_accessibility_report_monthly": 0,
      "testing_total_unique_counts_weekly": 0,
      "testing_total_unique_counts_monthly": 0
    },
    "issues_edit": {
      "g_project_management_issue_title_changed_weekly": 0,
      "g_project_management_issue_title_changed_monthly": 0,
      "g_project_management_issue_description_changed_weekly": 0,
      "g_project_management_issue_description_changed_monthly": 0,
      "g_project_management_issue_assignee_changed_weekly": 0,
      "g_project_management_issue_assignee_changed_monthly": 0,
      "g_project_management_issue_made_confidential_weekly": 0,
      "g_project_management_issue_made_confidential_monthly": 0,
      "g_project_management_issue_made_visible_weekly": 0,
      "g_project_management_issue_made_visible_monthly": 0,
      "g_project_management_issue_created_weekly": 0,
      "g_project_management_issue_created_monthly": 0,
      "g_project_management_issue_closed_weekly": 0,
      "g_project_management_issue_closed_monthly": 0,
      "g_project_management_issue_reopened_weekly": 0,
      "g_project_management_issue_reopened_monthly": 0,
      "g_project_management_issue_label_changed_weekly": 0,
      "g_project_management_issue_label_changed_monthly": 0,
      "g_project_management_issue_milestone_changed_weekly": 0,
      "g_project_management_issue_milestone_changed_monthly": 0,
      "g_project_management_issue_iteration_changed_weekly": 0,
      "g_project_management_issue_iteration_changed_monthly": 0,
      "g_project_management_issue_weight_changed_weekly": 0,
      "g_project_management_issue_weight_changed_monthly": 0,
      "g_project_management_issue_cross_referenced_weekly": 0,
      "g_project_management_issue_cross_referenced_monthly": 0,
      "g_project_management_issue_moved_weekly": 0,
      "g_project_management_issue_moved_monthly": 0,
      "g_project_management_issue_related_weekly": 0,
      "g_project_management_issue_related_monthly": 0,
      "g_project_management_issue_unrelated_weekly": 0,
      "g_project_management_issue_unrelated_monthly": 0,
      "g_project_management_issue_marked_as_duplicate_weekly": 0,
      "g_project_management_issue_marked_as_duplicate_monthly": 0,
      "g_project_management_issue_locked_weekly": 0,
      "g_project_management_issue_locked_monthly": 0,
      "g_project_management_issue_unlocked_weekly": 0,
      "g_project_management_issue_unlocked_monthly": 0,
      "g_project_management_issue_added_to_epic_weekly": 0,
      "g_project_management_issue_added_to_epic_monthly": 0,
      "g_project_management_issue_removed_from_epic_weekly": 0,
      "g_project_management_issue_removed_from_epic_monthly": 0,
      "g_project_management_issue_changed_epic_weekly": 0,
      "g_project_management_issue_changed_epic_monthly": 0,
      "g_project_management_issue_designs_added_weekly": 0,
      "g_project_management_issue_designs_added_monthly": 0,
      "g_project_management_issue_designs_modified_weekly": 0,
      "g_project_management_issue_designs_modified_monthly": 0,
      "g_project_management_issue_designs_removed_weekly": 0,
      "g_project_management_issue_designs_removed_monthly": 0,
      "g_project_management_issue_due_date_changed_weekly": 0,
      "g_project_management_issue_due_date_changed_monthly": 0,
      "g_project_management_issue_time_estimate_changed_weekly": 0,
      "g_project_management_issue_time_estimate_changed_monthly": 0,
      "g_project_management_issue_time_spent_changed_weekly": 0,
      "g_project_management_issue_time_spent_changed_monthly": 0,
      "g_project_management_issue_comment_added_weekly": 0,
      "g_project_management_issue_comment_added_monthly": 0,
      "g_project_management_issue_comment_edited_weekly": 0,
      "g_project_management_issue_comment_edited_monthly": 0,
      "g_project_management_issue_comment_removed_weekly": 0,
      "g_project_management_issue_comment_removed_monthly": 0,
      "g_project_management_issue_health_status_changed_weekly": 0,
      "g_project_management_issue_health_status_changed_monthly": 0,
      "g_project_management_issue_cloned_weekly": 0,
      "g_project_management_issue_cloned_monthly": 0,
      "issues_edit_total_unique_counts_weekly": 0,
      "issues_edit_total_unique_counts_monthly": 0
    },
    "ci_secrets_management": {
      "i_ci_secrets_management_vault_build_created_weekly": 0,
      "i_ci_secrets_management_vault_build_created_monthly": 0
    },
    "snippets": {
      "i_snippets_show_weekly": 0,
      "i_snippets_show_monthly": 0
    },
    "terraform": {
      "p_terraform_state_api_unique_users_weekly": 0,
      "p_terraform_state_api_unique_users_monthly": 0
    },
    "pipeline_authoring": {
      "o_pipeline_authoring_unique_users_committing_ciconfigfile_weekly": 0,
      "o_pipeline_authoring_unique_users_committing_ciconfigfile_monthly": 0,
      "o_pipeline_authoring_unique_users_pushing_mr_ciconfigfile_weekly": 0,
      "o_pipeline_authoring_unique_users_pushing_mr_ciconfigfile_monthly": 0,
      "pipeline_authoring_total_unique_counts_weekly": 0,
      "pipeline_authoring_total_unique_counts_monthly": 0
    },
    "secure": {
      "users_expanding_secure_security_report_weekly": 0,
      "users_expanding_secure_security_report_monthly": 0
    },
    "network_policies": {
      "clusters_using_network_policies_ui_weekly": 0,
      "clusters_using_network_policies_ui_monthly": 0
    },
    "epic_boards_usage": {
      "g_project_management_users_creating_epic_boards_weekly": 0,
      "g_project_management_users_creating_epic_boards_monthly": 0,
      "g_project_management_users_viewing_epic_boards_weekly": 0,
      "g_project_management_users_viewing_epic_boards_monthly": 0,
      "g_project_management_users_updating_epic_board_names_weekly": 0,
      "g_project_management_users_updating_epic_board_names_monthly": 0,
      "epic_boards_usage_total_unique_counts_weekly": 0,
      "epic_boards_usage_total_unique_counts_monthly": 0
    },
    "epics_usage": {
      "g_project_management_epic_created_weekly": 0,
      "g_project_management_epic_created_monthly": 0,
      "project_management_users_unchecking_epic_task_weekly": 0,
      "project_management_users_unchecking_epic_task_monthly": 0,
      "project_management_users_checking_epic_task_weekly": 0,
      "project_management_users_checking_epic_task_monthly": 0,
      "g_project_management_users_updating_epic_titles_weekly": 0,
      "g_project_management_users_updating_epic_titles_monthly": 0,
      "g_project_management_users_updating_epic_descriptions_weekly": 0,
      "g_project_management_users_updating_epic_descriptions_monthly": 0,
      "g_project_management_users_creating_epic_notes_weekly": 0,
      "g_project_management_users_creating_epic_notes_monthly": 0,
      "g_project_management_users_updating_epic_notes_weekly": 0,
      "g_project_management_users_updating_epic_notes_monthly": 0,
      "g_project_management_users_destroying_epic_notes_weekly": 0,
      "g_project_management_users_destroying_epic_notes_monthly": 0,
      "g_project_management_users_awarding_epic_emoji_weekly": 0,
      "g_project_management_users_awarding_epic_emoji_monthly": 0,
      "g_project_management_users_removing_epic_emoji_weekly": 0,
      "g_project_management_users_removing_epic_emoji_monthly": 0,
      "g_project_management_users_setting_epic_start_date_as_fixed_weekly": 0,
      "g_project_management_users_setting_epic_start_date_as_fixed_monthly": 0,
      "g_project_management_users_updating_fixed_epic_start_date_weekly": 0,
      "g_project_management_users_updating_fixed_epic_start_date_monthly": 0,
      "g_project_management_users_setting_epic_start_date_as_inherited_weekly": 0,
      "g_project_management_users_setting_epic_start_date_as_inherited_monthly": 0,
      "g_project_management_users_setting_epic_due_date_as_fixed_weekly": 0,
      "g_project_management_users_setting_epic_due_date_as_fixed_monthly": 0,
      "g_project_management_users_updating_fixed_epic_due_date_weekly": 0,
      "g_project_management_users_updating_fixed_epic_due_date_monthly": 0,
      "g_project_management_users_setting_epic_due_date_as_inherited_weekly": 0,
      "g_project_management_users_setting_epic_due_date_as_inherited_monthly": 0,
      "g_project_management_epic_issue_added_weekly": 0,
      "g_project_management_epic_issue_added_monthly": 0,
      "g_project_management_epic_issue_removed_weekly": 0,
      "g_project_management_epic_issue_removed_monthly": 0,
      "g_project_management_epic_issue_moved_from_project_weekly": 0,
      "g_project_management_epic_issue_moved_from_project_monthly": 0,
      "g_project_management_users_updating_epic_parent_weekly": 0,
      "g_project_management_users_updating_epic_parent_monthly": 0,
      "g_project_management_epic_closed_weekly": 0,
      "g_project_management_epic_closed_monthly": 0,
      "g_project_management_epic_reopened_weekly": 0,
      "g_project_management_epic_reopened_monthly": 0,
      "g_project_management_issue_promoted_to_epic_weekly": 0,
      "g_project_management_issue_promoted_to_epic_monthly": 0,
      "g_project_management_users_setting_epic_confidential_weekly": 0,
      "g_project_management_users_setting_epic_confidential_monthly": 0,
      "g_project_management_users_setting_epic_visible_weekly": 0,
      "g_project_management_users_setting_epic_visible_monthly": 0,
      "g_project_management_epic_users_changing_labels_weekly": 0,
      "g_project_management_epic_users_changing_labels_monthly": 0,
      "g_project_management_epic_destroyed_weekly": 0,
      "g_project_management_epic_destroyed_monthly": 0,
      "g_project_management_epic_cross_referenced_weekly": 0,
      "g_project_management_epic_cross_referenced_monthly": 0,
      "g_project_management_users_epic_issue_added_from_epic_weekly": 0,
      "g_project_management_users_epic_issue_added_from_epic_monthly": 0,
      "epics_usage_total_unique_counts_weekly": 0,
      "epics_usage_total_unique_counts_monthly": 0
    },
    "code_review": {
      "i_code_review_mr_diffs_weekly": 0,
      "i_code_review_mr_diffs_monthly": 0,
      "i_code_review_user_single_file_diffs_weekly": 0,
      "i_code_review_user_single_file_diffs_monthly": 0,
      "i_code_review_mr_single_file_diffs_weekly": 0,
      "i_code_review_mr_single_file_diffs_monthly": 0,
      "i_code_review_user_toggled_task_item_status_weekly": 0,
      "i_code_review_user_toggled_task_item_status_monthly": 0,
      "i_code_review_user_create_mr_weekly": 0,
      "i_code_review_user_create_mr_monthly": 0,
      "i_code_review_user_close_mr_weekly": 0,
      "i_code_review_user_close_mr_monthly": 0,
      "i_code_review_user_reopen_mr_weekly": 0,
      "i_code_review_user_reopen_mr_monthly": 0,
      "i_code_review_user_approve_mr_weekly": 0,
      "i_code_review_user_approve_mr_monthly": 0,
      "i_code_review_user_unapprove_mr_weekly": 0,
      "i_code_review_user_unapprove_mr_monthly": 0,
      "i_code_review_user_resolve_thread_weekly": 0,
      "i_code_review_user_resolve_thread_monthly": 0,
      "i_code_review_user_unresolve_thread_weekly": 0,
      "i_code_review_user_unresolve_thread_monthly": 0,
      "i_code_review_edit_mr_title_weekly": 0,
      "i_code_review_edit_mr_title_monthly": 0,
      "i_code_review_edit_mr_desc_weekly": 0,
      "i_code_review_edit_mr_desc_monthly": 0,
      "i_code_review_user_merge_mr_weekly": 0,
      "i_code_review_user_merge_mr_monthly": 0,
      "i_code_review_user_create_mr_comment_weekly": 0,
      "i_code_review_user_create_mr_comment_monthly": 0,
      "i_code_review_user_edit_mr_comment_weekly": 0,
      "i_code_review_user_edit_mr_comment_monthly": 0,
      "i_code_review_user_remove_mr_comment_weekly": 0,
      "i_code_review_user_remove_mr_comment_monthly": 0,
      "i_code_review_user_create_review_note_weekly": 0,
      "i_code_review_user_create_review_note_monthly": 0,
      "i_code_review_user_publish_review_weekly": 0,
      "i_code_review_user_publish_review_monthly": 0,
      "i_code_review_user_create_multiline_mr_comment_weekly": 0,
      "i_code_review_user_create_multiline_mr_comment_monthly": 0,
      "i_code_review_user_edit_multiline_mr_comment_weekly": 0,
      "i_code_review_user_edit_multiline_mr_comment_monthly": 0,
      "i_code_review_user_remove_multiline_mr_comment_weekly": 0,
      "i_code_review_user_remove_multiline_mr_comment_monthly": 0,
      "i_code_review_user_add_suggestion_weekly": 0,
      "i_code_review_user_add_suggestion_monthly": 0,
      "i_code_review_user_apply_suggestion_weekly": 0,
      "i_code_review_user_apply_suggestion_monthly": 0,
      "i_code_review_user_assigned_weekly": 0,
      "i_code_review_user_assigned_monthly": 0,
      "i_code_review_user_marked_as_draft_weekly": 0,
      "i_code_review_user_marked_as_draft_monthly": 0,
      "i_code_review_user_unmarked_as_draft_weekly": 0,
      "i_code_review_user_unmarked_as_draft_monthly": 0,
      "i_code_review_user_review_requested_weekly": 0,
      "i_code_review_user_review_requested_monthly": 0,
      "i_code_review_user_approval_rule_added_weekly": 0,
      "i_code_review_user_approval_rule_added_monthly": 0,
      "i_code_review_user_approval_rule_deleted_weekly": 0,
      "i_code_review_user_approval_rule_deleted_monthly": 0,
      "i_code_review_user_approval_rule_edited_weekly": 0,
      "i_code_review_user_approval_rule_edited_monthly": 0,
      "i_code_review_user_vs_code_api_request_weekly": 0,
      "i_code_review_user_vs_code_api_request_monthly": 0,
      "i_code_review_user_create_mr_from_issue_weekly": 0,
      "i_code_review_user_create_mr_from_issue_monthly": 0,
      "i_code_review_user_mr_discussion_locked_weekly": 0,
      "i_code_review_user_mr_discussion_locked_monthly": 0,
      "i_code_review_user_mr_discussion_unlocked_weekly": 0,
      "i_code_review_user_mr_discussion_unlocked_monthly": 0,
      "i_code_review_user_time_estimate_changed_weekly": 0,
      "i_code_review_user_time_estimate_changed_monthly": 0,
      "i_code_review_user_time_spent_changed_weekly": 0,
      "i_code_review_user_time_spent_changed_monthly": 0,
      "i_code_review_user_assignees_changed_weekly": 0,
      "i_code_review_user_assignees_changed_monthly": 0,
      "i_code_review_user_reviewers_changed_weekly": 0,
      "i_code_review_user_reviewers_changed_monthly": 0,
      "i_code_review_user_milestone_changed_weekly": 0,
      "i_code_review_user_milestone_changed_monthly": 0,
      "i_code_review_user_labels_changed_weekly": 0,
      "i_code_review_user_labels_changed_monthly": 0,
      "i_code_review_click_diff_view_setting_weekly": 0,
      "i_code_review_click_diff_view_setting_monthly": 0,
      "i_code_review_click_single_file_mode_setting_weekly": 0,
      "i_code_review_click_single_file_mode_setting_monthly": 0,
      "i_code_review_click_file_browser_setting_weekly": 0,
      "i_code_review_click_file_browser_setting_monthly": 0,
      "i_code_review_click_whitespace_setting_weekly": 0,
      "i_code_review_click_whitespace_setting_monthly": 0,
      "i_code_review_diff_view_inline_weekly": 0,
      "i_code_review_diff_view_inline_monthly": 0,
      "i_code_review_diff_view_parallel_weekly": 0,
      "i_code_review_diff_view_parallel_monthly": 0,
      "i_code_review_file_browser_tree_view_weekly": 0,
      "i_code_review_file_browser_tree_view_monthly": 0,
      "i_code_review_file_browser_list_view_weekly": 0,
      "i_code_review_file_browser_list_view_monthly": 0,
      "i_code_review_diff_show_whitespace_weekly": 0,
      "i_code_review_diff_show_whitespace_monthly": 0,
      "i_code_review_diff_hide_whitespace_weekly": 0,
      "i_code_review_diff_hide_whitespace_monthly": 0,
      "i_code_review_diff_single_file_weekly": 0,
      "i_code_review_diff_single_file_monthly": 0,
      "i_code_review_diff_multiple_files_weekly": 0,
      "i_code_review_diff_multiple_files_monthly": 0,
      "i_code_review_user_load_conflict_ui_weekly": 0,
      "i_code_review_user_load_conflict_ui_monthly": 0,
      "i_code_review_user_resolve_conflict_weekly": 0,
      "i_code_review_user_resolve_conflict_monthly": 0,
      "code_review_total_unique_counts_weekly": 0,
      "code_review_total_unique_counts_monthly": 0
    },
    "ci_templates": {
      "p_ci_templates_implicit_auto_devops_weekly": 0,
      "p_ci_templates_implicit_auto_devops_monthly": 0,
      "p_ci_templates_implicit_auto_devops_build_weekly": 0,
      "p_ci_templates_implicit_auto_devops_build_monthly": 0,
      "p_ci_templates_implicit_auto_devops_deploy_weekly": 0,
      "p_ci_templates_implicit_auto_devops_deploy_monthly": 0,
      "p_ci_templates_implicit_security_sast_weekly": 0,
      "p_ci_templates_implicit_security_sast_monthly": 0,
      "p_ci_templates_implicit_security_secret_detection_weekly": 0,
      "p_ci_templates_implicit_security_secret_detection_monthly": 0,
      "p_ci_templates_5_min_production_app_weekly": 0,
      "p_ci_templates_5_min_production_app_monthly": 0,
      "p_ci_templates_auto_devops_weekly": 0,
      "p_ci_templates_auto_devops_monthly": 0,
      "p_ci_templates_aws_cf_deploy_ec2_weekly": 0,
      "p_ci_templates_aws_cf_deploy_ec2_monthly": 0,
      "p_ci_templates_aws_deploy_ecs_weekly": 0,
      "p_ci_templates_aws_deploy_ecs_monthly": 0,
      "p_ci_templates_auto_devops_build_weekly": 0,
      "p_ci_templates_auto_devops_build_monthly": 0,
      "p_ci_templates_auto_devops_deploy_weekly": 0,
      "p_ci_templates_auto_devops_deploy_monthly": 0,
      "p_ci_templates_auto_devops_deploy_latest_weekly": 0,
      "p_ci_templates_auto_devops_deploy_latest_monthly": 0,
      "p_ci_templates_security_sast_weekly": 0,
      "p_ci_templates_security_sast_monthly": 0,
      "p_ci_templates_security_secret_detection_weekly": 0,
      "p_ci_templates_security_secret_detection_monthly": 0,
      "p_ci_templates_terraform_base_latest_weekly": 0,
      "p_ci_templates_terraform_base_latest_monthly": 0,
      "ci_templates_total_unique_counts_weekly": 0,
      "ci_templates_total_unique_counts_monthly": 0
    },
    "quickactions": {
      "i_quickactions_approve_weekly": 0,
      "i_quickactions_approve_monthly": 0,
      "i_quickactions_assign_single_weekly": 0,
      "i_quickactions_assign_single_monthly": 0,
      "i_quickactions_assign_multiple_weekly": 0,
      "i_quickactions_assign_multiple_monthly": 0,
      "i_quickactions_assign_self_weekly": 0,
      "i_quickactions_assign_self_monthly": 0,
      "i_quickactions_assign_reviewer_weekly": 0,
      "i_quickactions_assign_reviewer_monthly": 0,
      "i_quickactions_award_weekly": 0,
      "i_quickactions_award_monthly": 0,
      "i_quickactions_board_move_weekly": 0,
      "i_quickactions_board_move_monthly": 0,
      "i_quickactions_child_epic_weekly": 0,
      "i_quickactions_child_epic_monthly": 0,
      "i_quickactions_clear_weight_weekly": 0,
      "i_quickactions_clear_weight_monthly": 0,
      "i_quickactions_clone_weekly": 0,
      "i_quickactions_clone_monthly": 0,
      "i_quickactions_close_weekly": 0,
      "i_quickactions_close_monthly": 0,
      "i_quickactions_confidential_weekly": 0,
      "i_quickactions_confidential_monthly": 0,
      "i_quickactions_copy_metadata_merge_request_weekly": 0,
      "i_quickactions_copy_metadata_merge_request_monthly": 0,
      "i_quickactions_copy_metadata_issue_weekly": 0,
      "i_quickactions_copy_metadata_issue_monthly": 0,
      "i_quickactions_create_merge_request_weekly": 0,
      "i_quickactions_create_merge_request_monthly": 0,
      "i_quickactions_done_weekly": 0,
      "i_quickactions_done_monthly": 0,
      "i_quickactions_draft_weekly": 0,
      "i_quickactions_draft_monthly": 0,
      "i_quickactions_due_weekly": 0,
      "i_quickactions_due_monthly": 0,
      "i_quickactions_duplicate_weekly": 0,
      "i_quickactions_duplicate_monthly": 0,
      "i_quickactions_epic_weekly": 0,
      "i_quickactions_epic_monthly": 0,
      "i_quickactions_estimate_weekly": 0,
      "i_quickactions_estimate_monthly": 0,
      "i_quickactions_iteration_weekly": 0,
      "i_quickactions_iteration_monthly": 0,
      "i_quickactions_label_weekly": 0,
      "i_quickactions_label_monthly": 0,
      "i_quickactions_lock_weekly": 0,
      "i_quickactions_lock_monthly": 0,
      "i_quickactions_merge_weekly": 0,
      "i_quickactions_merge_monthly": 0,
      "i_quickactions_milestone_weekly": 0,
      "i_quickactions_milestone_monthly": 0,
      "i_quickactions_move_weekly": 0,
      "i_quickactions_move_monthly": 0,
      "i_quickactions_parent_epic_weekly": 0,
      "i_quickactions_parent_epic_monthly": 0,
      "i_quickactions_promote_weekly": 0,
      "i_quickactions_promote_monthly": 0,
      "i_quickactions_publish_weekly": 0,
      "i_quickactions_publish_monthly": 0,
      "i_quickactions_reassign_weekly": 0,
      "i_quickactions_reassign_monthly": 0,
      "i_quickactions_reassign_reviewer_weekly": 0,
      "i_quickactions_reassign_reviewer_monthly": 0,
      "i_quickactions_rebase_weekly": 0,
      "i_quickactions_rebase_monthly": 0,
      "i_quickactions_relabel_weekly": 0,
      "i_quickactions_relabel_monthly": 0,
      "i_quickactions_relate_weekly": 0,
      "i_quickactions_relate_monthly": 0,
      "i_quickactions_remove_child_epic_weekly": 0,
      "i_quickactions_remove_child_epic_monthly": 0,
      "i_quickactions_remove_due_date_weekly": 0,
      "i_quickactions_remove_due_date_monthly": 0,
      "i_quickactions_remove_epic_weekly": 0,
      "i_quickactions_remove_epic_monthly": 0,
      "i_quickactions_remove_estimate_weekly": 0,
      "i_quickactions_remove_estimate_monthly": 0,
      "i_quickactions_remove_iteration_weekly": 0,
      "i_quickactions_remove_iteration_monthly": 0,
      "i_quickactions_remove_milestone_weekly": 0,
      "i_quickactions_remove_milestone_monthly": 0,
      "i_quickactions_remove_parent_epic_weekly": 0,
      "i_quickactions_remove_parent_epic_monthly": 0,
      "i_quickactions_remove_time_spent_weekly": 0,
      "i_quickactions_remove_time_spent_monthly": 0,
      "i_quickactions_remove_zoom_weekly": 0,
      "i_quickactions_remove_zoom_monthly": 0,
      "i_quickactions_reopen_weekly": 0,
      "i_quickactions_reopen_monthly": 0,
      "i_quickactions_shrug_weekly": 0,
      "i_quickactions_shrug_monthly": 0,
      "i_quickactions_spend_subtract_weekly": 0,
      "i_quickactions_spend_subtract_monthly": 0,
      "i_quickactions_spend_add_weekly": 0,
      "i_quickactions_spend_add_monthly": 0,
      "i_quickactions_submit_review_weekly": 0,
      "i_quickactions_submit_review_monthly": 0,
      "i_quickactions_subscribe_weekly": 0,
      "i_quickactions_subscribe_monthly": 0,
      "i_quickactions_tableflip_weekly": 0,
      "i_quickactions_tableflip_monthly": 0,
      "i_quickactions_tag_weekly": 0,
      "i_quickactions_tag_monthly": 0,
      "i_quickactions_target_branch_weekly": 0,
      "i_quickactions_target_branch_monthly": 0,
      "i_quickactions_title_weekly": 0,
      "i_quickactions_title_monthly": 0,
      "i_quickactions_todo_weekly": 0,
      "i_quickactions_todo_monthly": 0,
      "i_quickactions_unassign_specific_weekly": 0,
      "i_quickactions_unassign_specific_monthly": 0,
      "i_quickactions_unassign_all_weekly": 0,
      "i_quickactions_unassign_all_monthly": 0,
      "i_quickactions_unassign_reviewer_weekly": 0,
      "i_quickactions_unassign_reviewer_monthly": 0,
      "i_quickactions_unlabel_specific_weekly": 0,
      "i_quickactions_unlabel_specific_monthly": 0,
      "i_quickactions_unlabel_all_weekly": 0,
      "i_quickactions_unlabel_all_monthly": 0,
      "i_quickactions_unlock_weekly": 0,
      "i_quickactions_unlock_monthly": 0,
      "i_quickactions_unsubscribe_weekly": 0,
      "i_quickactions_unsubscribe_monthly": 0,
      "i_quickactions_weight_weekly": 0,
      "i_quickactions_weight_monthly": 0,
      "i_quickactions_wip_weekly": 0,
      "i_quickactions_wip_monthly": 0,
      "i_quickactions_zoom_weekly": 0,
      "i_quickactions_zoom_monthly": 0,
      "i_quickactions_invite_email_single_weekly": 0,
      "i_quickactions_invite_email_single_monthly": 0,
      "i_quickactions_invite_email_multiple_weekly": 0,
      "i_quickactions_invite_email_multiple_monthly": 0,
      "quickactions_total_unique_counts_weekly": 0,
      "quickactions_total_unique_counts_monthly": 0
    },
    "deploy_token_packages": {
      "i_package_composer_deploy_token_weekly": 0,
      "i_package_composer_deploy_token_monthly": 0,
      "i_package_conan_deploy_token_weekly": 0,
      "i_package_conan_deploy_token_monthly": 0,
      "i_package_container_deploy_token_weekly": 0,
      "i_package_container_deploy_token_monthly": 0,
      "i_package_debian_deploy_token_weekly": 0,
      "i_package_debian_deploy_token_monthly": 0,
      "i_package_generic_deploy_token_weekly": 0,
      "i_package_generic_deploy_token_monthly": 0,
      "i_package_golang_deploy_token_weekly": 0,
      "i_package_golang_deploy_token_monthly": 0,
      "i_package_helm_deploy_token_weekly": 0,
      "i_package_helm_deploy_token_monthly": 0,
      "i_package_maven_deploy_token_weekly": 0,
      "i_package_maven_deploy_token_monthly": 0,
      "i_package_npm_deploy_token_weekly": 0,
      "i_package_npm_deploy_token_monthly": 0,
      "i_package_nuget_deploy_token_weekly": 0,
      "i_package_nuget_deploy_token_monthly": 0,
      "i_package_pypi_deploy_token_weekly": 0,
      "i_package_pypi_deploy_token_monthly": 0,
      "i_package_rubygems_deploy_token_weekly": 0,
      "i_package_rubygems_deploy_token_monthly": 0,
      "i_package_tag_deploy_token_weekly": 0,
      "i_package_tag_deploy_token_monthly": 0,
      "i_package_terraform_module_deploy_token_weekly": 0,
      "i_package_terraform_module_deploy_token_monthly": 0,
      "deploy_token_packages_total_unique_counts_weekly": 0,
      "deploy_token_packages_total_unique_counts_monthly": 0
    },
    "user_packages": {
      "i_package_composer_user_weekly": 0,
      "i_package_composer_user_monthly": 0,
      "i_package_conan_user_weekly": 0,
      "i_package_conan_user_monthly": 0,
      "i_package_container_user_weekly": 0,
      "i_package_container_user_monthly": 0,
      "i_package_debian_user_weekly": 0,
      "i_package_debian_user_monthly": 0,
      "i_package_generic_user_weekly": 0,
      "i_package_generic_user_monthly": 0,
      "i_package_golang_user_weekly": 0,
      "i_package_golang_user_monthly": 0,
      "i_package_helm_user_weekly": 0,
      "i_package_helm_user_monthly": 0,
      "i_package_maven_user_weekly": 0,
      "i_package_maven_user_monthly": 0,
      "i_package_npm_user_weekly": 0,
      "i_package_npm_user_monthly": 0,
      "i_package_nuget_user_weekly": 0,
      "i_package_nuget_user_monthly": 0,
      "i_package_pypi_user_weekly": 0,
      "i_package_pypi_user_monthly": 0,
      "i_package_rubygems_user_weekly": 0,
      "i_package_rubygems_user_monthly": 0,
      "i_package_tag_user_weekly": 0,
      "i_package_tag_user_monthly": 0,
      "i_package_terraform_module_user_weekly": 0,
      "i_package_terraform_module_user_monthly": 0,
      "user_packages_total_unique_counts_weekly": 0,
      "user_packages_total_unique_counts_monthly": 0
    },
    "ecosystem": {
      "i_ecosystem_jira_service_close_issue_weekly": 0,
      "i_ecosystem_jira_service_close_issue_monthly": 0,
      "i_ecosystem_jira_service_cross_reference_weekly": 0,
      "i_ecosystem_jira_service_cross_reference_monthly": 0,
      "i_ecosystem_jira_service_list_issues_weekly": 0,
      "i_ecosystem_jira_service_list_issues_monthly": 0,
      "i_ecosystem_jira_service_create_issue_weekly": 0,
      "i_ecosystem_jira_service_create_issue_monthly": 0,
      "i_ecosystem_slack_service_issue_notification_weekly": 0,
      "i_ecosystem_slack_service_issue_notification_monthly": 0,
      "i_ecosystem_slack_service_push_notification_weekly": 0,
      "i_ecosystem_slack_service_push_notification_monthly": 0,
      "i_ecosystem_slack_service_deployment_notification_weekly": 0,
      "i_ecosystem_slack_service_deployment_notification_monthly": 0,
      "i_ecosystem_slack_service_wiki_page_notification_weekly": 0,
      "i_ecosystem_slack_service_wiki_page_notification_monthly": 0,
      "i_ecosystem_slack_service_merge_request_notification_weekly": 0,
      "i_ecosystem_slack_service_merge_request_notification_monthly": 0,
      "i_ecosystem_slack_service_note_notification_weekly": 0,
      "i_ecosystem_slack_service_note_notification_monthly": 0,
      "i_ecosystem_slack_service_tag_push_notification_weekly": 0,
      "i_ecosystem_slack_service_tag_push_notification_monthly": 0,
      "i_ecosystem_slack_service_confidential_note_notification_weekly": 0,
      "i_ecosystem_slack_service_confidential_note_notification_monthly": 0,
      "i_ecosystem_slack_service_confidential_issue_notification_weekly": 0,
      "i_ecosystem_slack_service_confidential_issue_notification_monthly": 0,
      "ecosystem_total_unique_counts_weekly": 0,
      "ecosystem_total_unique_counts_monthly": 0
    },
    "analytics": {
      "users_viewing_analytics_group_devops_adoption_weekly": 0,
      "users_viewing_analytics_group_devops_adoption_monthly": 0,
      "i_analytics_dev_ops_adoption_weekly": 0,
      "i_analytics_dev_ops_adoption_monthly": 0,
      "i_analytics_dev_ops_score_weekly": 0,
      "i_analytics_dev_ops_score_monthly": 0,
      "p_analytics_merge_request_weekly": 0,
      "p_analytics_merge_request_monthly": 0,
      "i_analytics_instance_statistics_weekly": 0,
      "i_analytics_instance_statistics_monthly": 0,
      "g_analytics_contribution_weekly": 0,
      "g_analytics_contribution_monthly": 0,
      "g_analytics_insights_weekly": 0,
      "g_analytics_insights_monthly": 0,
      "g_analytics_issues_weekly": 0,
      "g_analytics_issues_monthly": 0,
      "g_analytics_productivity_weekly": 0,
      "g_analytics_productivity_monthly": 0,
      "g_analytics_valuestream_weekly": 0,
      "g_analytics_valuestream_monthly": 0,
      "p_analytics_pipelines_weekly": 0,
      "p_analytics_pipelines_monthly": 0,
      "p_analytics_code_reviews_weekly": 0,
      "p_analytics_code_reviews_monthly": 0,
      "p_analytics_valuestream_weekly": 0,
      "p_analytics_valuestream_monthly": 0,
      "p_analytics_insights_weekly": 0,
      "p_analytics_insights_monthly": 0,
      "p_analytics_issues_weekly": 0,
      "p_analytics_issues_monthly": 0,
      "p_analytics_repo_weekly": 0,
      "p_analytics_repo_monthly": 0,
      "i_analytics_cohorts_weekly": 0,
      "i_analytics_cohorts_monthly": 0,
      "analytics_total_unique_counts_weekly": 0,
      "analytics_total_unique_counts_monthly": 0
    }
  },
  "recording_ce_finished_at": "2021-07-13T11:46:46.051Z"
}
