{
  "recorded_at": "2022-02-03 00:06:26 UTC",
  "uuid": "16c9f92a-20ff-4c80-9cff-f20796e27294",
  "hostname": "gdk.test",
  "version": "14.8.0-pre",
  "installation_type": "gitlab-development-kit",
  "active_user_count": 99,
  "edition": "EEU",
  "license_md5": "344ddd8d53a6e3569beaca490568a910",
  "license_id": 1037100,
  "historical_max_users": 0,
  "licensee": {
    "Name": "First Last",
    "Company": "Example corp",
    "Email": "name@example.com"
  },
  "license_user_count": 100
}
